table:0
rule_id=4101,table_id=0,predicate=10101100000100000000000000000---,in_ports=412,out_ports=411,priority=15
rule_id=4102,table_id=0,predicate=10101100000100000000000000000---,in_ports=413,out_ports=411,priority=15
rule_id=4103,table_id=0,predicate=10101100000100000000000000000---,in_ports=414,out_ports=411,priority=15
rule_id=4104,table_id=0,predicate=10101100000100000000000000001---,in_ports=411,out_ports=412,priority=15
rule_id=4105,table_id=0,predicate=10101100000100000000000000001---,in_ports=413,out_ports=412,priority=15
rule_id=4106,table_id=0,predicate=10101100000100000000000000001---,in_ports=414,out_ports=412,priority=15
rule_id=4107,table_id=0,predicate=10101100000100000000010000011111,in_ports=411,out_ports=413,priority=15
rule_id=4108,table_id=0,predicate=10101100000100000000010000011111,in_ports=412,out_ports=413,priority=15
rule_id=4109,table_id=0,predicate=10101100000100000000010000011111,in_ports=414,out_ports=413,priority=15
rule_id=4110,table_id=0,predicate=10101100000100000000010000100000,in_ports=411,out_ports=413,priority=15
rule_id=4111,table_id=0,predicate=10101100000100000000010000100000,in_ports=412,out_ports=413,priority=15
rule_id=4112,table_id=0,predicate=10101100000100000000010000100000,in_ports=414,out_ports=413,priority=15
rule_id=4113,table_id=0,predicate=10101100000100000000010000101001,in_ports=411,out_ports=414,priority=15
rule_id=4114,table_id=0,predicate=10101100000100000000010000101001,in_ports=412,out_ports=414,priority=15
rule_id=4115,table_id=0,predicate=10101100000100000000010000101001,in_ports=413,out_ports=414,priority=15
rule_id=4116,table_id=0,predicate=10101100000100000000010000101010,in_ports=411,out_ports=414,priority=15
rule_id=4117,table_id=0,predicate=10101100000100000000010000101010,in_ports=412,out_ports=414,priority=15
rule_id=4118,table_id=0,predicate=10101100000100000000010000101010,in_ports=413,out_ports=414,priority=15
rule_id=4119,table_id=0,predicate=10101100000100000000010000010111,in_ports=411,out_ports=413,priority=15
rule_id=4120,table_id=0,predicate=10101100000100000000010000010111,in_ports=412,out_ports=413,priority=15
rule_id=4121,table_id=0,predicate=10101100000100000000010000010111,in_ports=414,out_ports=413,priority=15
rule_id=4122,table_id=0,predicate=10101100000100000000010000011000,in_ports=411,out_ports=413,priority=15
rule_id=4123,table_id=0,predicate=10101100000100000000010000011000,in_ports=412,out_ports=413,priority=15
rule_id=4124,table_id=0,predicate=10101100000100000000010000011000,in_ports=414,out_ports=413,priority=15
rule_id=4125,table_id=0,predicate=10101100000100000000000010100001,in_ports=411,out_ports=414,priority=15
rule_id=4126,table_id=0,predicate=10101100000100000000000010100001,in_ports=412,out_ports=414,priority=15
rule_id=4127,table_id=0,predicate=10101100000100000000000010100001,in_ports=413,out_ports=414,priority=15
rule_id=4128,table_id=0,predicate=10101100000100000000000010100010,in_ports=411,out_ports=414,priority=15
rule_id=4129,table_id=0,predicate=10101100000100000000000010100010,in_ports=412,out_ports=414,priority=15
rule_id=4130,table_id=0,predicate=10101100000100000000000010100010,in_ports=413,out_ports=414,priority=15
rule_id=4131,table_id=0,predicate=1010110000010000000000000001----,in_ports=411,out_ports=414,priority=15
rule_id=4132,table_id=0,predicate=1010110000010000000000000001----,in_ports=412,out_ports=414,priority=15
rule_id=4133,table_id=0,predicate=1010110000010000000000000001----,in_ports=413,out_ports=414,priority=15
rule_id=4134,table_id=0,predicate=10101100000100000000000000011000,in_ports=411,out_ports=414,priority=15
rule_id=4135,table_id=0,predicate=10101100000100000000000000011000,in_ports=412,out_ports=414,priority=15
rule_id=4136,table_id=0,predicate=10101100000100000000000000011000,in_ports=413,out_ports=414,priority=15
rule_id=4137,table_id=0,predicate=10101100000100000000000000011111,in_ports=411,out_ports=414,priority=15
rule_id=4138,table_id=0,predicate=10101100000100000000000000011111,in_ports=412,out_ports=414,priority=15
rule_id=4139,table_id=0,predicate=10101100000100000000000000011111,in_ports=413,out_ports=414,priority=15
rule_id=4140,table_id=0,predicate=10101100000100000000000000100000,in_ports=411,out_ports=414,priority=15
rule_id=4141,table_id=0,predicate=10101100000100000000000000100000,in_ports=412,out_ports=414,priority=15
rule_id=4142,table_id=0,predicate=10101100000100000000000000100000,in_ports=413,out_ports=414,priority=15
rule_id=4143,table_id=0,predicate=1010110000010000----------------,in_ports=411,out_ports=412,priority=10
rule_id=4144,table_id=0,predicate=1010110000010000----------------,in_ports=413,out_ports=412,priority=10
rule_id=4145,table_id=0,predicate=1010110000010000----------------,in_ports=414,out_ports=412,priority=10
rule_id=4146,table_id=0,predicate=10101100000100000000001100101010,in_ports=411,out_ports=411,priority=15
