table:0
rule_id=4201,table_id=0,predicate=10101100000100000000000000011000,in_ports=422,out_ports=421,priority=15
rule_id=4202,table_id=0,predicate=10101100000100000000000000011000,in_ports=423,out_ports=421,priority=15
rule_id=4203,table_id=0,predicate=10101100000100000000000000011000,in_ports=424,out_ports=421,priority=15
rule_id=4204,table_id=0,predicate=10101100000100000000000000100010,in_ports=421,out_ports=422,priority=15
rule_id=4205,table_id=0,predicate=10101100000100000000000000100010,in_ports=423,out_ports=422,priority=15
rule_id=4206,table_id=0,predicate=10101100000100000000000000100010,in_ports=424,out_ports=422,priority=15
rule_id=4207,table_id=0,predicate=10101100000100000000010000011111,in_ports=421,out_ports=423,priority=15
rule_id=4208,table_id=0,predicate=10101100000100000000010000011111,in_ports=422,out_ports=423,priority=15
rule_id=4209,table_id=0,predicate=10101100000100000000010000011111,in_ports=424,out_ports=423,priority=15
rule_id=4210,table_id=0,predicate=10101100000100000000010000100000,in_ports=421,out_ports=423,priority=15
rule_id=4211,table_id=0,predicate=10101100000100000000010000100000,in_ports=422,out_ports=423,priority=15
rule_id=4212,table_id=0,predicate=10101100000100000000010000100000,in_ports=424,out_ports=423,priority=15
rule_id=4213,table_id=0,predicate=10101100000100000000010000101001,in_ports=421,out_ports=424,priority=15
rule_id=4214,table_id=0,predicate=10101100000100000000010000101001,in_ports=422,out_ports=424,priority=15
rule_id=4215,table_id=0,predicate=10101100000100000000010000101001,in_ports=423,out_ports=424,priority=15
rule_id=4216,table_id=0,predicate=10101100000100000000010000101010,in_ports=421,out_ports=424,priority=15
rule_id=4217,table_id=0,predicate=10101100000100000000010000101010,in_ports=422,out_ports=424,priority=15
rule_id=4218,table_id=0,predicate=10101100000100000000010000101010,in_ports=423,out_ports=424,priority=15
rule_id=4219,table_id=0,predicate=10101100000100000000010000001101,in_ports=421,out_ports=423,priority=15
rule_id=4220,table_id=0,predicate=10101100000100000000010000001101,in_ports=422,out_ports=423,priority=15
rule_id=4221,table_id=0,predicate=10101100000100000000010000001101,in_ports=424,out_ports=423,priority=15
rule_id=4222,table_id=0,predicate=10101100000100000000010000001110,in_ports=421,out_ports=423,priority=15
rule_id=4223,table_id=0,predicate=10101100000100000000010000001110,in_ports=422,out_ports=423,priority=15
rule_id=4224,table_id=0,predicate=10101100000100000000010000001110,in_ports=424,out_ports=423,priority=15
rule_id=4225,table_id=0,predicate=10101100000100000000000010010101,in_ports=421,out_ports=424,priority=15
rule_id=4226,table_id=0,predicate=10101100000100000000000010010101,in_ports=422,out_ports=424,priority=15
rule_id=4227,table_id=0,predicate=10101100000100000000000010010101,in_ports=423,out_ports=424,priority=15
rule_id=4228,table_id=0,predicate=10101100000100000000000010010110,in_ports=421,out_ports=424,priority=15
rule_id=4229,table_id=0,predicate=10101100000100000000000010010110,in_ports=422,out_ports=424,priority=15
rule_id=4230,table_id=0,predicate=10101100000100000000000010010110,in_ports=423,out_ports=424,priority=15
rule_id=4231,table_id=0,predicate=10101100000100000000000000000---,in_ports=421,out_ports=423,priority=15
rule_id=4232,table_id=0,predicate=10101100000100000000000000000---,in_ports=422,out_ports=423,priority=15
rule_id=4233,table_id=0,predicate=10101100000100000000000000000---,in_ports=424,out_ports=423,priority=15
rule_id=4234,table_id=0,predicate=10101100000100000000000000001---,in_ports=421,out_ports=423,priority=15
rule_id=4235,table_id=0,predicate=10101100000100000000000000001---,in_ports=422,out_ports=423,priority=15
rule_id=4236,table_id=0,predicate=10101100000100000000000000001---,in_ports=424,out_ports=423,priority=15
rule_id=4237,table_id=0,predicate=1010110000010000----------------,in_ports=421,out_ports=422,priority=10
rule_id=4238,table_id=0,predicate=1010110000010000----------------,in_ports=423,out_ports=422,priority=10
rule_id=4239,table_id=0,predicate=1010110000010000----------------,in_ports=424,out_ports=422,priority=10
rule_id=4240,table_id=0,predicate=10101100000100000000001100101010,in_ports=421,out_ports=421,priority=15
