For action fault and match faults:

Box 0: S0

table:0
rule_id=3,table_id=0,predicate=000010100000000010000000010000----,in_ports=1,out_ports=4,priority=11
rule_id=4,table_id=0,predicate=00001010000000001000000001000-----,in_ports=1,out_ports=3,priority=12
