table:0
rule_id=3101,table_id=0,predicate=10101100000100000000000000000---,in_ports=312,out_ports=311,priority=10
rule_id=3102,table_id=0,predicate=10101100000100000000000000000---,in_ports=313,out_ports=311,priority=10
rule_id=3103,table_id=0,predicate=10101100000100000000000000000---,in_ports=314,out_ports=311,priority=10
rule_id=3104,table_id=0,predicate=10101100000100000000000000001---,in_ports=311,out_ports=312,priority=10
rule_id=3105,table_id=0,predicate=10101100000100000000000000001---,in_ports=313,out_ports=312,priority=10
rule_id=3106,table_id=0,predicate=10101100000100000000000000001---,in_ports=314,out_ports=312,priority=10
rule_id=3107,table_id=0,predicate=10101100000100000000001100011111,in_ports=311,out_ports=313,priority=10
rule_id=3108,table_id=0,predicate=10101100000100000000001100011111,in_ports=312,out_ports=313,priority=10
rule_id=3109,table_id=0,predicate=10101100000100000000001100011111,in_ports=314,out_ports=313,priority=10
rule_id=3110,table_id=0,predicate=10101100000100000000001100100000,in_ports=311,out_ports=313,priority=10
rule_id=3111,table_id=0,predicate=10101100000100000000001100100000,in_ports=312,out_ports=313,priority=10
rule_id=3112,table_id=0,predicate=10101100000100000000001100100000,in_ports=314,out_ports=313,priority=10
rule_id=3113,table_id=0,predicate=10101100000100000000001100101001,in_ports=311,out_ports=314,priority=10
rule_id=3114,table_id=0,predicate=10101100000100000000001100101001,in_ports=312,out_ports=314,priority=10
rule_id=3115,table_id=0,predicate=10101100000100000000001100101001,in_ports=313,out_ports=314,priority=10
rule_id=3116,table_id=0,predicate=10101100000100000000001100101010,in_ports=311,out_ports=314,priority=10
rule_id=3117,table_id=0,predicate=10101100000100000000001100101010,in_ports=312,out_ports=314,priority=10
rule_id=3118,table_id=0,predicate=10101100000100000000001100101010,in_ports=313,out_ports=314,priority=10
rule_id=3119,table_id=0,predicate=10101100000100000000001100010111,in_ports=311,out_ports=313,priority=10
rule_id=3120,table_id=0,predicate=10101100000100000000001100010111,in_ports=312,out_ports=313,priority=10
rule_id=3121,table_id=0,predicate=10101100000100000000001100010111,in_ports=314,out_ports=313,priority=10
rule_id=3122,table_id=0,predicate=10101100000100000000001100011000,in_ports=311,out_ports=313,priority=10
rule_id=3123,table_id=0,predicate=10101100000100000000001100011000,in_ports=312,out_ports=313,priority=10
rule_id=3124,table_id=0,predicate=10101100000100000000001100011000,in_ports=314,out_ports=313,priority=10
rule_id=3125,table_id=0,predicate=10101100000100000000000000111101,in_ports=311,out_ports=314,priority=10
rule_id=3126,table_id=0,predicate=10101100000100000000000000111101,in_ports=312,out_ports=314,priority=10
rule_id=3127,table_id=0,predicate=10101100000100000000000000111101,in_ports=313,out_ports=314,priority=10
rule_id=3128,table_id=0,predicate=10101100000100000000000000111110,in_ports=311,out_ports=314,priority=10
rule_id=3129,table_id=0,predicate=10101100000100000000000000111110,in_ports=312,out_ports=314,priority=10
rule_id=3130,table_id=0,predicate=10101100000100000000000000111110,in_ports=313,out_ports=314,priority=10
rule_id=3131,table_id=0,predicate=1010110000010000000000000001----,in_ports=311,out_ports=314,priority=10
rule_id=3132,table_id=0,predicate=1010110000010000000000000001----,in_ports=312,out_ports=314,priority=10
rule_id=3133,table_id=0,predicate=1010110000010000000000000001----,in_ports=313,out_ports=314,priority=10
rule_id=3134,table_id=0,predicate=10101100000100000000000000011000,in_ports=311,out_ports=314,priority=10
rule_id=3135,table_id=0,predicate=10101100000100000000000000011000,in_ports=312,out_ports=314,priority=10
rule_id=3136,table_id=0,predicate=10101100000100000000000000011000,in_ports=313,out_ports=314,priority=10
rule_id=3137,table_id=0,predicate=10101100000100000000000000011111,in_ports=311,out_ports=314,priority=10
rule_id=3138,table_id=0,predicate=10101100000100000000000000011111,in_ports=312,out_ports=314,priority=10
rule_id=3139,table_id=0,predicate=10101100000100000000000000011111,in_ports=313,out_ports=314,priority=10
rule_id=3140,table_id=0,predicate=10101100000100000000000000100000,in_ports=311,out_ports=314,priority=10
rule_id=3141,table_id=0,predicate=10101100000100000000000000100000,in_ports=312,out_ports=314,priority=10
rule_id=3142,table_id=0,predicate=10101100000100000000000000100000,in_ports=313,out_ports=314,priority=10
rule_id=3143,table_id=0,predicate=1010110000010000----------------,in_ports=311,out_ports=312,priority=15
rule_id=3144,table_id=0,predicate=1010110000010000----------------,in_ports=313,out_ports=312,priority=15
rule_id=3145,table_id=0,predicate=1010110000010000----------------,in_ports=314,out_ports=312,priority=15
