table:0
rule_id=3301,table_id=0,predicate=101011000001000000000000--------,in_ports=331,out_ports=332,priority=15
rule_id=3302,table_id=0,predicate=101011000001000000000000--------,in_ports=331,out_ports=331,priority=10
rule_id=3303,table_id=0,predicate=101011000001000000000000--------,in_ports=332,out_ports=331,priority=10
rule_id=3304,table_id=0,predicate=101011000001000000000000--------,in_ports=332,out_ports=332,priority=15

