table:0
rule_id=3401,table_id=0,predicate=101011000001000000000000--------,in_ports=341,out_ports=342,priority=10
rule_id=3402,table_id=0,predicate=101011000001000000000000--------,in_ports=341,out_ports=341,priority=15
rule_id=3403,table_id=0,predicate=101011000001000000000000--------,in_ports=342,out_ports=341,priority=15
rule_id=3404,table_id=0,predicate=101011000001000000000000--------,in_ports=342,out_ports=342,priority=10

