table:0
rule_id=401,table_id=0,predicate=00001010000000010000000100------,in_ports=41,out_ports=43,priority=09
rule_id=402,table_id=0,predicate=000010100000000001000000001000--,in_ports=42,out_ports=44,priority=06
rule_id=403,table_id=0,predicate=00000000000000000000011001001100,in_ports=41,out_ports=43,priority=59998 
rule_id=404,table_id=0,predicate=00000000000000000000011001001010,in_ports=41,out_ports=43,priority=59997 
rule_id=405,table_id=0,predicate=00000000000000000000011001001010,in_ports=41,out_ports=43,priority=59996 
rule_id=406,table_id=0,predicate=00000000000000000000011001001010,in_ports=41,out_ports=43,priority=59995 
rule_id=407,table_id=0,predicate=00000000000000000000000111101010,in_ports=41,out_ports=43,priority=59994 
rule_id=408,table_id=0,predicate=00000000000000000000000111101010,in_ports=41,out_ports=43,priority=59993 
rule_id=409,table_id=0,predicate=00000000000000000000000111101010,in_ports=41,out_ports=43,priority=59992 
rule_id=410,table_id=0,predicate=00000000000000000000000111101010,in_ports=41,out_ports=43,priority=59991 
rule_id=411,table_id=0,predicate=00000000000000000000000100100001,in_ports=41,out_ports=43,priority=59990 
rule_id=412,table_id=0,predicate=00000000000000000000000100100001,in_ports=41,out_ports=43,priority=59989 
rule_id=413,table_id=0,predicate=00000000000000000000000100100001,in_ports=41,out_ports=43,priority=59988 
rule_id=414,table_id=0,predicate=00000000000000000000001000011100,in_ports=41,out_ports=43,priority=59987 
rule_id=415,table_id=0,predicate=00000000000000000000001000011100,in_ports=41,out_ports=43,priority=59986 
rule_id=416,table_id=0,predicate=00000000000000000000001000011100,in_ports=41,out_ports=43,priority=59985 
rule_id=417,table_id=0,predicate=00000000000000000000001000011100,in_ports=41,out_ports=43,priority=59984 
rule_id=418,table_id=0,predicate=00000000000000000000001111011110,in_ports=41,out_ports=43,priority=59983 
rule_id=419,table_id=0,predicate=00000000000000000000001111011110,in_ports=41,out_ports=43,priority=59982 
rule_id=420,table_id=0,predicate=00000000000000000000001111011110,in_ports=41,out_ports=43,priority=59981 
rule_id=421,table_id=0,predicate=00000000000000000000001111011110,in_ports=41,out_ports=43,priority=59980 
rule_id=422,table_id=0,predicate=00000000000000000000000000001010,in_ports=41,out_ports=43,priority=59979 
rule_id=423,table_id=0,predicate=00000000000000000000000000001010,in_ports=41,out_ports=43,priority=59978 
rule_id=424,table_id=0,predicate=00000000000000000000000000001010,in_ports=41,out_ports=43,priority=59977 
rule_id=425,table_id=0,predicate=00000000000000000000000000001010,in_ports=41,out_ports=43,priority=59976 
rule_id=426,table_id=0,predicate=00000000000000000000001110010100,in_ports=41,out_ports=43,priority=59975 
rule_id=427,table_id=0,predicate=00000000000000000000001110010100,in_ports=41,out_ports=43,priority=59974 
rule_id=428,table_id=0,predicate=00000000000000000000001110010100,in_ports=41,out_ports=43,priority=59973 
rule_id=429,table_id=0,predicate=00000000000000000000011001011001,in_ports=41,out_ports=43,priority=59972 
rule_id=430,table_id=0,predicate=00000000000000000000011001011001,in_ports=41,out_ports=43,priority=59971 
rule_id=431,table_id=0,predicate=00000000000000000000011001011001,in_ports=41,out_ports=43,priority=59970 
rule_id=432,table_id=0,predicate=00000000000000000000011001110110,in_ports=41,out_ports=43,priority=59969 
rule_id=433,table_id=0,predicate=00000000000000000000011001110110,in_ports=41,out_ports=43,priority=59968 
rule_id=434,table_id=0,predicate=00000000000000000000011001110110,in_ports=41,out_ports=43,priority=59967 
rule_id=435,table_id=0,predicate=00000000000000000000000100101010,in_ports=41,out_ports=43,priority=59966 
rule_id=436,table_id=0,predicate=00000000000000000000000100101010,in_ports=41,out_ports=43,priority=59965 
rule_id=437,table_id=0,predicate=00000000000000000000000100101010,in_ports=41,out_ports=43,priority=59964 
rule_id=438,table_id=0,predicate=00000000000000000000001000010010,in_ports=41,out_ports=43,priority=59963 
rule_id=439,table_id=0,predicate=00000000000000000000001000010010,in_ports=41,out_ports=43,priority=59962 
rule_id=440,table_id=0,predicate=00000000000000000000001000010010,in_ports=41,out_ports=43,priority=59961 
rule_id=441,table_id=0,predicate=00000000000000000000001000010010,in_ports=41,out_ports=43,priority=59960 
rule_id=442,table_id=0,predicate=00000000000000000000001110011000,in_ports=41,out_ports=43,priority=59959 
rule_id=443,table_id=0,predicate=00000000000000000000001110011000,in_ports=41,out_ports=43,priority=59958 
rule_id=444,table_id=0,predicate=00000000000000000000001110011000,in_ports=41,out_ports=43,priority=59957 
rule_id=445,table_id=0,predicate=00000000000000000000001110011000,in_ports=41,out_ports=43,priority=59956 
rule_id=446,table_id=0,predicate=00000000000000000000001100111000,in_ports=41,out_ports=43,priority=59955 
rule_id=447,table_id=0,predicate=00000000000000000000001100111000,in_ports=41,out_ports=43,priority=59954 
rule_id=448,table_id=0,predicate=00000000000000000000001100111000,in_ports=41,out_ports=43,priority=59953 
rule_id=449,table_id=0,predicate=00000000000000000000000100100110,in_ports=41,out_ports=43,priority=59952 
rule_id=450,table_id=0,predicate=00000000000000000000000100100110,in_ports=41,out_ports=43,priority=59951 
rule_id=451,table_id=0,predicate=00000000000000000000000100100110,in_ports=41,out_ports=43,priority=59950 
rule_id=452,table_id=0,predicate=00000000000000000000001100110100,in_ports=41,out_ports=43,priority=59949 
rule_id=453,table_id=0,predicate=00000000000000000000001100110100,in_ports=41,out_ports=43,priority=59948 
rule_id=454,table_id=0,predicate=00000000000000000000001100110100,in_ports=41,out_ports=43,priority=59947 
rule_id=455,table_id=0,predicate=00000000000000000000000100100010,in_ports=41,out_ports=43,priority=59946 
rule_id=456,table_id=0,predicate=00000000000000000000000100100010,in_ports=41,out_ports=43,priority=59945 
rule_id=457,table_id=0,predicate=00000000000000000000000100100010,in_ports=41,out_ports=43,priority=59944 
rule_id=458,table_id=0,predicate=00000000000000000000001001001110,in_ports=41,out_ports=43,priority=59943 
rule_id=459,table_id=0,predicate=00000000000000000000001001001110,in_ports=41,out_ports=43,priority=59942 
rule_id=460,table_id=0,predicate=00000000000000000000001001001110,in_ports=41,out_ports=43,priority=59941 
rule_id=461,table_id=0,predicate=00000000000000000000001001001110,in_ports=41,out_ports=43,priority=59940 
rule_id=462,table_id=0,predicate=00000000000000000000000100111000,in_ports=41,out_ports=43,priority=59939 
rule_id=463,table_id=0,predicate=00000000000000000000000100111000,in_ports=41,out_ports=43,priority=59938 
rule_id=464,table_id=0,predicate=00000000000000000000000100111000,in_ports=41,out_ports=43,priority=59937 
rule_id=465,table_id=0,predicate=00000000000000000000001111010100,in_ports=41,out_ports=43,priority=59936 
rule_id=466,table_id=0,predicate=00000000000000000000001111010100,in_ports=41,out_ports=43,priority=59935 
rule_id=467,table_id=0,predicate=00000000000000000000001111010100,in_ports=41,out_ports=43,priority=59934 
rule_id=468,table_id=0,predicate=00000000000000000000001111010100,in_ports=41,out_ports=43,priority=59933 
rule_id=469,table_id=0,predicate=00000000000000000000000100110110,in_ports=41,out_ports=43,priority=59932 
rule_id=470,table_id=0,predicate=00000000000000000000000100110110,in_ports=41,out_ports=43,priority=59931 
rule_id=471,table_id=0,predicate=00000000000000000000000100110110,in_ports=41,out_ports=43,priority=59930 
rule_id=472,table_id=0,predicate=00000000000000000000001010111101,in_ports=41,out_ports=43,priority=59929 
rule_id=473,table_id=0,predicate=00000000000000000000001010111101,in_ports=41,out_ports=43,priority=59928 
rule_id=474,table_id=0,predicate=00000000000000000000001010111101,in_ports=41,out_ports=43,priority=59927 
rule_id=475,table_id=0,predicate=00000000000000000000001010111101,in_ports=41,out_ports=43,priority=59926 
rule_id=476,table_id=0,predicate=00000000000000000000001010111110,in_ports=41,out_ports=43,priority=59925 
rule_id=477,table_id=0,predicate=00000000000000000000001010111110,in_ports=41,out_ports=43,priority=59924 
rule_id=478,table_id=0,predicate=00000000000000000000001010111110,in_ports=41,out_ports=43,priority=59923 
rule_id=479,table_id=0,predicate=00000000000000000000001010111110,in_ports=41,out_ports=43,priority=59922 
rule_id=480,table_id=0,predicate=00000000000000000000000100111010,in_ports=41,out_ports=43,priority=59921 
rule_id=481,table_id=0,predicate=00000000000000000000000100111010,in_ports=41,out_ports=43,priority=59920 
rule_id=482,table_id=0,predicate=00000000000000000000000100111010,in_ports=41,out_ports=43,priority=59919 
rule_id=483,table_id=0,predicate=00000000000000000000011101110000,in_ports=41,out_ports=43,priority=59918 
rule_id=484,table_id=0,predicate=00000000000000000000011101110000,in_ports=41,out_ports=43,priority=59917 
rule_id=485,table_id=0,predicate=00000000000000000000011101110000,in_ports=41,out_ports=43,priority=59916 
rule_id=486,table_id=0,predicate=00000000000000000000001100111110,in_ports=41,out_ports=43,priority=59915 
rule_id=487,table_id=0,predicate=00000000000000000000001100111110,in_ports=41,out_ports=43,priority=59914 
rule_id=488,table_id=0,predicate=00000000000000000000001100111110,in_ports=41,out_ports=43,priority=59913 
rule_id=489,table_id=0,predicate=00000000000000000000001100010110,in_ports=41,out_ports=43,priority=59912 
rule_id=490,table_id=0,predicate=00000000000000000000001100010110,in_ports=41,out_ports=43,priority=59911 
rule_id=491,table_id=0,predicate=00000000000000000000001100010110,in_ports=41,out_ports=43,priority=59910 
rule_id=492,table_id=0,predicate=00000000000000000000011101101110,in_ports=41,out_ports=43,priority=59909 
rule_id=493,table_id=0,predicate=00000000000000000000011101101110,in_ports=41,out_ports=43,priority=59908 
rule_id=494,table_id=0,predicate=00000000000000000000011101101110,in_ports=41,out_ports=43,priority=59907 
rule_id=495,table_id=0,predicate=00000000000000000000000000000011,in_ports=41,out_ports=43,priority=59906 
rule_id=496,table_id=0,predicate=00000000000000000000000000000011,in_ports=41,out_ports=43,priority=59905 
rule_id=497,table_id=0,predicate=00000000000000000000001000001000,in_ports=41,out_ports=43,priority=59904 
rule_id=498,table_id=0,predicate=00000000000000000000001000001000,in_ports=41,out_ports=43,priority=59903 
rule_id=499,table_id=0,predicate=00000000000000000000001000001000,in_ports=41,out_ports=43,priority=59902 
rule_id=500,table_id=0,predicate=00000000000000000000001000001000,in_ports=41,out_ports=43,priority=59901 
rule_id=501,table_id=0,predicate=00000000000000000000001110010110,in_ports=41,out_ports=43,priority=59900 
rule_id=502,table_id=0,predicate=00000000000000000000001110010110,in_ports=41,out_ports=43,priority=59899 
rule_id=503,table_id=0,predicate=00000000000000000000001110010110,in_ports=41,out_ports=43,priority=59898 
rule_id=504,table_id=0,predicate=00000000000000000000000101110001,in_ports=41,out_ports=43,priority=59897 
rule_id=505,table_id=0,predicate=00000000000000000000000101110001,in_ports=41,out_ports=43,priority=59896 
rule_id=506,table_id=0,predicate=00000000000000000000000101110001,in_ports=41,out_ports=43,priority=59895 
rule_id=507,table_id=0,predicate=00000000000000000000000101110001,in_ports=41,out_ports=43,priority=59894 
rule_id=508,table_id=0,predicate=00000000000000000000000101101110,in_ports=41,out_ports=43,priority=59893 
rule_id=509,table_id=0,predicate=00000000000000000000000101101110,in_ports=41,out_ports=43,priority=59892 
rule_id=510,table_id=0,predicate=00000000000000000000000101101110,in_ports=41,out_ports=43,priority=59891 
rule_id=511,table_id=0,predicate=00000000000000000000000101101110,in_ports=41,out_ports=43,priority=59890 
rule_id=512,table_id=0,predicate=00000000000000000000011001110101,in_ports=41,out_ports=43,priority=59889 
rule_id=513,table_id=0,predicate=00000000000000000000011001110101,in_ports=41,out_ports=43,priority=59888 
rule_id=514,table_id=0,predicate=00000000000000000000011001110101,in_ports=41,out_ports=43,priority=59887 
rule_id=515,table_id=0,predicate=00000000000000000000011001110010,in_ports=41,out_ports=43,priority=59886 
rule_id=516,table_id=0,predicate=00000000000000000000011001110010,in_ports=41,out_ports=43,priority=59885 
rule_id=517,table_id=0,predicate=00000000000000000000011001110010,in_ports=41,out_ports=43,priority=59884 
rule_id=518,table_id=0,predicate=00000000000000000000000101101101,in_ports=41,out_ports=43,priority=59883 
rule_id=519,table_id=0,predicate=00000000000000000000000101101101,in_ports=41,out_ports=43,priority=59882 
rule_id=520,table_id=0,predicate=00000000000000000000000101101101,in_ports=41,out_ports=43,priority=59881 
rule_id=521,table_id=0,predicate=00000000000000000000000101101101,in_ports=41,out_ports=43,priority=59880 
rule_id=522,table_id=0,predicate=00000000000000000000001110001110,in_ports=41,out_ports=43,priority=59879 
rule_id=523,table_id=0,predicate=00000000000000000000001110001110,in_ports=41,out_ports=43,priority=59878 
rule_id=524,table_id=0,predicate=00000000000000000000001110001110,in_ports=41,out_ports=43,priority=59877 
rule_id=525,table_id=0,predicate=00000000000000000000000101101000,in_ports=41,out_ports=43,priority=59876 
rule_id=526,table_id=0,predicate=00000000000000000000000101101000,in_ports=41,out_ports=43,priority=59875 
rule_id=527,table_id=0,predicate=00000000000000000000000101101000,in_ports=41,out_ports=43,priority=59874 
rule_id=528,table_id=0,predicate=00000000000000000000000101101000,in_ports=41,out_ports=43,priority=59873 
rule_id=529,table_id=0,predicate=00000000000000000000000101101001,in_ports=41,out_ports=43,priority=59872 
rule_id=530,table_id=0,predicate=00000000000000000000000101101001,in_ports=41,out_ports=43,priority=59871 
rule_id=531,table_id=0,predicate=00000000000000000000000101101001,in_ports=41,out_ports=43,priority=59870 
rule_id=532,table_id=0,predicate=00000000000000000000000101101001,in_ports=41,out_ports=43,priority=59869 
rule_id=533,table_id=0,predicate=00000000000000000000001001001010,in_ports=41,out_ports=43,priority=59868 
rule_id=534,table_id=0,predicate=00000000000000000000001001001010,in_ports=41,out_ports=43,priority=59867 
rule_id=535,table_id=0,predicate=00000000000000000000001001001010,in_ports=41,out_ports=43,priority=59866 
rule_id=536,table_id=0,predicate=00000000000000000000001001001010,in_ports=41,out_ports=43,priority=59865 
rule_id=537,table_id=0,predicate=00000000000000000000001001001011,in_ports=41,out_ports=43,priority=59864 
rule_id=538,table_id=0,predicate=00000000000000000000001001001011,in_ports=41,out_ports=43,priority=59863 
rule_id=539,table_id=0,predicate=00000000000000000000001001001011,in_ports=41,out_ports=43,priority=59862 
rule_id=540,table_id=0,predicate=00000000000000000000001001001011,in_ports=41,out_ports=43,priority=59861 
rule_id=541,table_id=0,predicate=00000000000000000000001001000110,in_ports=41,out_ports=43,priority=59860 
rule_id=542,table_id=0,predicate=00000000000000000000001001000110,in_ports=41,out_ports=43,priority=59859 
rule_id=543,table_id=0,predicate=00000000000000000000001001000110,in_ports=41,out_ports=43,priority=59858 
rule_id=544,table_id=0,predicate=00000000000000000000001001000111,in_ports=41,out_ports=43,priority=59857 
rule_id=545,table_id=0,predicate=00000000000000000000001001000111,in_ports=41,out_ports=43,priority=59856 
rule_id=546,table_id=0,predicate=00000000000000000000001001000111,in_ports=41,out_ports=43,priority=59855 
rule_id=547,table_id=0,predicate=00000000000000000000001001000101,in_ports=41,out_ports=43,priority=59854 
rule_id=548,table_id=0,predicate=00000000000000000000001001000101,in_ports=41,out_ports=43,priority=59853 
rule_id=549,table_id=0,predicate=00000000000000000000001001000101,in_ports=41,out_ports=43,priority=59852 
rule_id=550,table_id=0,predicate=00000000000000000000000100101001,in_ports=41,out_ports=43,priority=59851 
rule_id=551,table_id=0,predicate=00000000000000000000000100101001,in_ports=41,out_ports=43,priority=59850 
rule_id=552,table_id=0,predicate=00000000000000000000000100101001,in_ports=41,out_ports=43,priority=59849 
rule_id=553,table_id=0,predicate=00000000000000000000001110000100,in_ports=41,out_ports=43,priority=59848 
rule_id=554,table_id=0,predicate=00000000000000000000001110000100,in_ports=41,out_ports=43,priority=59847 
rule_id=555,table_id=0,predicate=00000000000000000000001110000100,in_ports=41,out_ports=43,priority=59846 
rule_id=556,table_id=0,predicate=00000000000000000000001100001100,in_ports=41,out_ports=43,priority=59845 
rule_id=557,table_id=0,predicate=00000000000000000000001100001100,in_ports=41,out_ports=43,priority=59844 
rule_id=558,table_id=0,predicate=00000000000000000000001100001100,in_ports=41,out_ports=43,priority=59843 
rule_id=559,table_id=0,predicate=00000000000000000000001100001100,in_ports=41,out_ports=43,priority=59842 
rule_id=560,table_id=0,predicate=00000000000000000000001101001000,in_ports=41,out_ports=43,priority=59841 
rule_id=561,table_id=0,predicate=00000000000000000000001101001000,in_ports=41,out_ports=43,priority=59840 
rule_id=562,table_id=0,predicate=00000000000000000000001101001000,in_ports=41,out_ports=43,priority=59839 
rule_id=563,table_id=0,predicate=00000000000000000000011001110001,in_ports=41,out_ports=43,priority=59838 
rule_id=564,table_id=0,predicate=00000000000000000000011001110001,in_ports=41,out_ports=43,priority=59837 
rule_id=565,table_id=0,predicate=00000000000000000000011001110001,in_ports=41,out_ports=43,priority=59836 
rule_id=566,table_id=0,predicate=00000000000000000000001100010101,in_ports=41,out_ports=43,priority=59835 
rule_id=567,table_id=0,predicate=00000000000000000000001100010101,in_ports=41,out_ports=43,priority=59834 
rule_id=568,table_id=0,predicate=00000000000000000000001100010101,in_ports=41,out_ports=43,priority=59833 
rule_id=569,table_id=0,predicate=00000000000000000000001100010101,in_ports=41,out_ports=43,priority=59832 
rule_id=570,table_id=0,predicate=00000000000000000000011001010001,in_ports=41,out_ports=43,priority=59831 
rule_id=571,table_id=0,predicate=00000000000000000000011001010001,in_ports=41,out_ports=43,priority=59830 
rule_id=572,table_id=0,predicate=00000000000000000000011001010001,in_ports=41,out_ports=43,priority=59829 
rule_id=573,table_id=0,predicate=00000000000000000000000111111110,in_ports=41,out_ports=43,priority=59828 
rule_id=574,table_id=0,predicate=00000000000000000000000111111110,in_ports=41,out_ports=43,priority=59827 
rule_id=575,table_id=0,predicate=00000000000000000000000111111110,in_ports=41,out_ports=43,priority=59826 
rule_id=576,table_id=0,predicate=00000000000000000000000111111110,in_ports=41,out_ports=43,priority=59825 
rule_id=577,table_id=0,predicate=00000000000000000000001000111010,in_ports=41,out_ports=43,priority=59824 
rule_id=578,table_id=0,predicate=00000000000000000000001000111010,in_ports=41,out_ports=43,priority=59823 
rule_id=579,table_id=0,predicate=00000000000000000000001000111010,in_ports=41,out_ports=43,priority=59822 
rule_id=580,table_id=0,predicate=00000000000000000000001000111010,in_ports=41,out_ports=43,priority=59821 
rule_id=581,table_id=0,predicate=00000000000000000000011101110100,in_ports=41,out_ports=43,priority=59820 
rule_id=582,table_id=0,predicate=00000000000000000000011101110100,in_ports=41,out_ports=43,priority=59819 
rule_id=583,table_id=0,predicate=00000000000000000000011101110100,in_ports=41,out_ports=43,priority=59818 
rule_id=584,table_id=0,predicate=00000000000000000000011101110101,in_ports=41,out_ports=43,priority=59817 
rule_id=585,table_id=0,predicate=00000000000000000000011101110101,in_ports=41,out_ports=43,priority=59816 
rule_id=586,table_id=0,predicate=00000000000000000000011101110101,in_ports=41,out_ports=43,priority=59815 
rule_id=587,table_id=0,predicate=00000000000000000000011101110010,in_ports=41,out_ports=43,priority=59814 
rule_id=588,table_id=0,predicate=00000000000000000000011101110010,in_ports=41,out_ports=43,priority=59813 
rule_id=589,table_id=0,predicate=00000000000000000000011101110010,in_ports=41,out_ports=43,priority=59812 
rule_id=590,table_id=0,predicate=00000000000000000000011101110011,in_ports=41,out_ports=43,priority=59811 
rule_id=591,table_id=0,predicate=00000000000000000000011101110011,in_ports=41,out_ports=43,priority=59810 
rule_id=592,table_id=0,predicate=00000000000000000000011101110011,in_ports=41,out_ports=43,priority=59809 
rule_id=593,table_id=0,predicate=00000000000000000000000011111010,in_ports=41,out_ports=43,priority=59808 
rule_id=594,table_id=0,predicate=00000000000000000000000011111010,in_ports=41,out_ports=43,priority=59807 
rule_id=595,table_id=0,predicate=00000000000000000000000011111010,in_ports=41,out_ports=43,priority=59806 
rule_id=596,table_id=0,predicate=00000000000000000000000011111010,in_ports=41,out_ports=43,priority=59805 
rule_id=597,table_id=0,predicate=00000000000000000000011101110001,in_ports=41,out_ports=43,priority=59804 
rule_id=598,table_id=0,predicate=00000000000000000000011101110001,in_ports=41,out_ports=43,priority=59803 
rule_id=599,table_id=0,predicate=00000000000000000000011101110001,in_ports=41,out_ports=43,priority=59802 
rule_id=600,table_id=0,predicate=00000000000000000000000100000000,in_ports=41,out_ports=43,priority=59801 
rule_id=601,table_id=0,predicate=00000000000000000000000100000000,in_ports=41,out_ports=43,priority=59800 
rule_id=602,table_id=0,predicate=00000000000000000000000100000000,in_ports=41,out_ports=43,priority=59799 
rule_id=603,table_id=0,predicate=00000000000000000000000100000000,in_ports=41,out_ports=43,priority=59798 
rule_id=604,table_id=0,predicate=00000000000000000000011101101111,in_ports=41,out_ports=43,priority=59797 
rule_id=605,table_id=0,predicate=00000000000000000000011101101111,in_ports=41,out_ports=43,priority=59796 
rule_id=606,table_id=0,predicate=00000000000000000000011101101111,in_ports=41,out_ports=43,priority=59795 
rule_id=607,table_id=0,predicate=00000000000000000000011101101100,in_ports=41,out_ports=43,priority=59794 
rule_id=608,table_id=0,predicate=00000000000000000000011101101100,in_ports=41,out_ports=43,priority=59793 
rule_id=609,table_id=0,predicate=00000000000000000000011101101100,in_ports=41,out_ports=43,priority=59792 
rule_id=610,table_id=0,predicate=00000000000000000000011101101100,in_ports=41,out_ports=43,priority=59791 
rule_id=611,table_id=0,predicate=00000000000000000000011101101101,in_ports=41,out_ports=43,priority=59790 
rule_id=612,table_id=0,predicate=00000000000000000000011101101101,in_ports=41,out_ports=43,priority=59789 
rule_id=613,table_id=0,predicate=00000000000000000000011101101101,in_ports=41,out_ports=43,priority=59788 
rule_id=614,table_id=0,predicate=00000000000000000000011101101101,in_ports=41,out_ports=43,priority=59787 
rule_id=615,table_id=0,predicate=00000000000000000000011001100000,in_ports=41,out_ports=43,priority=59786 
rule_id=616,table_id=0,predicate=00000000000000000000011001100000,in_ports=41,out_ports=43,priority=59785 
rule_id=617,table_id=0,predicate=00000000000000000000011001100000,in_ports=41,out_ports=43,priority=59784 
rule_id=618,table_id=0,predicate=00000000000000000000001101010010,in_ports=41,out_ports=43,priority=59783 
rule_id=619,table_id=0,predicate=00000000000000000000001101010010,in_ports=41,out_ports=43,priority=59782 
rule_id=620,table_id=0,predicate=00000000000000000000001101010010,in_ports=41,out_ports=43,priority=59781 
rule_id=621,table_id=0,predicate=00000000000000000000011001100011,in_ports=41,out_ports=43,priority=59780 
rule_id=622,table_id=0,predicate=00000000000000000000011001100011,in_ports=41,out_ports=43,priority=59779 
rule_id=623,table_id=0,predicate=00000000000000000000011001100011,in_ports=41,out_ports=43,priority=59778 
rule_id=624,table_id=0,predicate=00000000000000000000011001100011,in_ports=41,out_ports=43,priority=59777 
rule_id=625,table_id=0,predicate=00000000000000000000011001100100,in_ports=41,out_ports=43,priority=59776 
rule_id=626,table_id=0,predicate=00000000000000000000011001100100,in_ports=41,out_ports=43,priority=59775 
rule_id=627,table_id=0,predicate=00000000000000000000011001100100,in_ports=41,out_ports=43,priority=59774 
rule_id=628,table_id=0,predicate=00000000000000000000011001100100,in_ports=41,out_ports=43,priority=59773 
rule_id=629,table_id=0,predicate=00000000000000000000001111001010,in_ports=41,out_ports=43,priority=59772 
rule_id=630,table_id=0,predicate=00000000000000000000001111001010,in_ports=41,out_ports=43,priority=59771 
rule_id=631,table_id=0,predicate=00000000000000000000001111001010,in_ports=41,out_ports=43,priority=59770 
rule_id=632,table_id=0,predicate=00000000000000000000001111001010,in_ports=41,out_ports=43,priority=59769 
rule_id=633,table_id=0,predicate=00000000000000000000000000000010,in_ports=41,out_ports=43,priority=59768 
rule_id=634,table_id=0,predicate=00000000000000000000000000000010,in_ports=41,out_ports=43,priority=59767 
rule_id=635,table_id=0,predicate=00000000000000000000001010001010,in_ports=41,out_ports=43,priority=59766 
rule_id=636,table_id=0,predicate=00000000000000000000001010001010,in_ports=41,out_ports=43,priority=59765 
rule_id=637,table_id=0,predicate=00000000000000000000001010001010,in_ports=41,out_ports=43,priority=59764 
rule_id=638,table_id=0,predicate=00000000000000000000001010001010,in_ports=41,out_ports=43,priority=59763 
rule_id=639,table_id=0,predicate=00000000000000000000000111111000,in_ports=41,out_ports=43,priority=59762 
rule_id=640,table_id=0,predicate=00000000000000000000000111111000,in_ports=41,out_ports=43,priority=59761 
rule_id=641,table_id=0,predicate=00000000000000000000000111111000,in_ports=41,out_ports=43,priority=59760 
rule_id=642,table_id=0,predicate=00000000000000000000000111111000,in_ports=41,out_ports=43,priority=59759 
rule_id=643,table_id=0,predicate=00000000000000000000000111110110,in_ports=41,out_ports=43,priority=59758 
rule_id=644,table_id=0,predicate=00000000000000000000000111110110,in_ports=41,out_ports=43,priority=59757 
rule_id=645,table_id=0,predicate=00000000000000000000000111110110,in_ports=41,out_ports=43,priority=59756 
rule_id=646,table_id=0,predicate=00000000000000000000000111110100,in_ports=41,out_ports=43,priority=59755 
rule_id=647,table_id=0,predicate=00000000000000000000000111110100,in_ports=41,out_ports=43,priority=59754 
rule_id=648,table_id=0,predicate=00000000000000000000000111110100,in_ports=41,out_ports=43,priority=59753 
rule_id=649,table_id=0,predicate=00000000000000000000000111110100,in_ports=41,out_ports=43,priority=59752 
rule_id=650,table_id=0,predicate=00000000000000000000001000110000,in_ports=41,out_ports=43,priority=59751 
rule_id=651,table_id=0,predicate=00000000000000000000001000110000,in_ports=41,out_ports=43,priority=59750 
rule_id=652,table_id=0,predicate=00000000000000000000001000110000,in_ports=41,out_ports=43,priority=59749 
rule_id=653,table_id=0,predicate=00000000000000000000001000110000,in_ports=41,out_ports=43,priority=59748 
rule_id=654,table_id=0,predicate=00000000000000000000001111000101,in_ports=41,out_ports=43,priority=59747 
rule_id=655,table_id=0,predicate=00000000000000000000001111000101,in_ports=41,out_ports=43,priority=59746 
rule_id=656,table_id=0,predicate=00000000000000000000001111000101,in_ports=41,out_ports=43,priority=59745 
rule_id=657,table_id=0,predicate=00000000000000000000001111000101,in_ports=41,out_ports=43,priority=59744 
rule_id=658,table_id=0,predicate=00000000000000000000001111000110,in_ports=41,out_ports=43,priority=59743 
rule_id=659,table_id=0,predicate=00000000000000000000001111000110,in_ports=41,out_ports=43,priority=59742 
rule_id=660,table_id=0,predicate=00000000000000000000001111000110,in_ports=41,out_ports=43,priority=59741 
rule_id=661,table_id=0,predicate=00000000000000000000001111000110,in_ports=41,out_ports=43,priority=59740 
rule_id=662,table_id=0,predicate=00000000000000000000001111000000,in_ports=41,out_ports=43,priority=59739 
rule_id=663,table_id=0,predicate=00000000000000000000001111000000,in_ports=41,out_ports=43,priority=59738 
rule_id=664,table_id=0,predicate=00000000000000000000001111000000,in_ports=41,out_ports=43,priority=59737 
rule_id=665,table_id=0,predicate=00000000000000000000001111000000,in_ports=41,out_ports=43,priority=59736 
rule_id=666,table_id=0,predicate=00000000000000000000000000010001,in_ports=41,out_ports=43,priority=59735 
rule_id=667,table_id=0,predicate=00000000000000000000000000010001,in_ports=41,out_ports=43,priority=59734 
rule_id=668,table_id=0,predicate=00000000000000000000000000010001,in_ports=41,out_ports=43,priority=59733 
rule_id=669,table_id=0,predicate=00000000000000000000000000010001,in_ports=41,out_ports=43,priority=59732 
rule_id=670,table_id=0,predicate=00000000000000000000000000010001,in_ports=41,out_ports=43,priority=59731 
rule_id=671,table_id=0,predicate=00000000000000000000000000010000,in_ports=41,out_ports=43,priority=59730 
rule_id=672,table_id=0,predicate=00000000000000000000000000010000,in_ports=41,out_ports=43,priority=59729 
rule_id=673,table_id=0,predicate=00000000000000000000000000010000,in_ports=41,out_ports=43,priority=59728 
rule_id=674,table_id=0,predicate=00000000000000000000001101011100,in_ports=41,out_ports=43,priority=59727 
rule_id=675,table_id=0,predicate=00000000000000000000001101011100,in_ports=41,out_ports=43,priority=59726 
rule_id=676,table_id=0,predicate=00000000000000000000001101011100,in_ports=41,out_ports=43,priority=59725 
rule_id=677,table_id=0,predicate=00000000000000000000001001011001,in_ports=41,out_ports=43,priority=59724 
rule_id=678,table_id=0,predicate=00000000000000000000001001011001,in_ports=41,out_ports=43,priority=59723 
rule_id=679,table_id=0,predicate=00000000000000000000001001011001,in_ports=41,out_ports=43,priority=59722 
rule_id=680,table_id=0,predicate=00000000000000000000001001011001,in_ports=41,out_ports=43,priority=59721 
rule_id=681,table_id=0,predicate=00000000000000000000001000100110,in_ports=41,out_ports=43,priority=59720 
rule_id=682,table_id=0,predicate=00000000000000000000001000100110,in_ports=41,out_ports=43,priority=59719 
rule_id=683,table_id=0,predicate=00000000000000000000001000100110,in_ports=41,out_ports=43,priority=59718 
rule_id=684,table_id=0,predicate=00000000000000000000001000100110,in_ports=41,out_ports=43,priority=59717 
rule_id=685,table_id=0,predicate=00000000000000000000011001110000,in_ports=41,out_ports=43,priority=59716 
rule_id=686,table_id=0,predicate=00000000000000000000011001110000,in_ports=41,out_ports=43,priority=59715 
rule_id=687,table_id=0,predicate=00000000000000000000011001110000,in_ports=41,out_ports=43,priority=59714 
rule_id=688,table_id=0,predicate=00000000000000000000001110101100,in_ports=41,out_ports=43,priority=59713 
rule_id=689,table_id=0,predicate=00000000000000000000001110101100,in_ports=41,out_ports=43,priority=59712 
rule_id=690,table_id=0,predicate=00000000000000000000001110101100,in_ports=41,out_ports=43,priority=59711 
rule_id=691,table_id=0,predicate=00000000000000000000001110101100,in_ports=41,out_ports=43,priority=59710 
rule_id=692,table_id=0,predicate=00000000000000000000001110110110,in_ports=41,out_ports=43,priority=59709 
rule_id=693,table_id=0,predicate=00000000000000000000001110110110,in_ports=41,out_ports=43,priority=59708 
rule_id=694,table_id=0,predicate=00000000000000000000001110110110,in_ports=41,out_ports=43,priority=59707 
rule_id=695,table_id=0,predicate=00000000000000000000001110110110,in_ports=41,out_ports=43,priority=59706 
rule_id=696,table_id=0,predicate=00000000000000000000001110111011,in_ports=41,out_ports=43,priority=59705 
rule_id=697,table_id=0,predicate=00000000000000000000001110111011,in_ports=41,out_ports=43,priority=59704 
rule_id=698,table_id=0,predicate=00000000000000000000001110111011,in_ports=41,out_ports=43,priority=59703 
rule_id=699,table_id=0,predicate=00000000000000000000001110111011,in_ports=41,out_ports=43,priority=59702 
rule_id=700,table_id=0,predicate=00000000000000000000000101100011,in_ports=41,out_ports=43,priority=59701 
rule_id=701,table_id=0,predicate=00000000000000000000000101100011,in_ports=41,out_ports=43,priority=59700 
rule_id=702,table_id=0,predicate=00000000000000000000000101100011,in_ports=41,out_ports=43,priority=59699 
rule_id=703,table_id=0,predicate=00000000000000000000000101100011,in_ports=41,out_ports=43,priority=59698 
rule_id=704,table_id=0,predicate=00000000000000000000001101100110,in_ports=41,out_ports=43,priority=59697 
rule_id=705,table_id=0,predicate=00000000000000000000001101100110,in_ports=41,out_ports=43,priority=59696 
rule_id=706,table_id=0,predicate=00000000000000000000001101100110,in_ports=41,out_ports=43,priority=59695 
rule_id=707,table_id=0,predicate=00000000000000000000001101100110,in_ports=41,out_ports=43,priority=59694 
rule_id=708,table_id=0,predicate=00000000000000000000011001001011,in_ports=41,out_ports=43,priority=59693 
rule_id=709,table_id=0,predicate=00000000000000000000011001001011,in_ports=41,out_ports=43,priority=59692 
rule_id=710,table_id=0,predicate=00000000000000000000011001001011,in_ports=41,out_ports=43,priority=59691 
rule_id=711,table_id=0,predicate=00000000000000000000000101000000,in_ports=41,out_ports=43,priority=59690 
rule_id=712,table_id=0,predicate=00000000000000000000000101000000,in_ports=41,out_ports=43,priority=59689 
rule_id=713,table_id=0,predicate=00000000000000000000000101000000,in_ports=41,out_ports=43,priority=59688 
rule_id=714,table_id=0,predicate=00000000000000000000000101000000,in_ports=41,out_ports=43,priority=59687 
rule_id=715,table_id=0,predicate=00000000000000000000011010100011,in_ports=41,out_ports=43,priority=59686 
rule_id=716,table_id=0,predicate=00000000000000000000011010100011,in_ports=41,out_ports=43,priority=59685 
rule_id=717,table_id=0,predicate=00000000000000000000011010100011,in_ports=41,out_ports=43,priority=59684 
rule_id=718,table_id=0,predicate=00000000000000000000001101111010,in_ports=41,out_ports=43,priority=59683 
rule_id=719,table_id=0,predicate=00000000000000000000001101111010,in_ports=41,out_ports=43,priority=59682 
rule_id=720,table_id=0,predicate=00000000000000000000001101111010,in_ports=41,out_ports=43,priority=59681 
rule_id=721,table_id=0,predicate=00000000000000000000001101111010,in_ports=41,out_ports=43,priority=59680 
rule_id=722,table_id=0,predicate=00000000000000000000000011001100,in_ports=41,out_ports=43,priority=59679 
rule_id=723,table_id=0,predicate=00000000000000000000000011001100,in_ports=41,out_ports=43,priority=59678 
rule_id=724,table_id=0,predicate=00000000000000000000000011001100,in_ports=41,out_ports=43,priority=59677 
rule_id=725,table_id=0,predicate=00000000000000000000000011001111,in_ports=41,out_ports=43,priority=59676 
rule_id=726,table_id=0,predicate=00000000000000000000000011001111,in_ports=41,out_ports=43,priority=59675 
rule_id=727,table_id=0,predicate=00000000000000000000000011001111,in_ports=41,out_ports=43,priority=59674 
rule_id=728,table_id=0,predicate=00000000000000000000000000000000,in_ports=41,out_ports=43,priority=59673 
rule_id=729,table_id=0,predicate=00000000000000000000000000000000,in_ports=41,out_ports=43,priority=59672 
rule_id=730,table_id=0,predicate=00000000000000000000000011001111,in_ports=41,out_ports=43,priority=59671 
rule_id=731,table_id=0,predicate=00000000000000000000000011001111,in_ports=41,out_ports=43,priority=59670 
rule_id=732,table_id=0,predicate=00000000000000000000000011001110,in_ports=41,out_ports=43,priority=59669 
rule_id=733,table_id=0,predicate=00000000000000000000000011001110,in_ports=41,out_ports=43,priority=59668 
rule_id=734,table_id=0,predicate=00000000000000000000000011001110,in_ports=41,out_ports=43,priority=59667 
rule_id=735,table_id=0,predicate=00000000000000000000000011010001,in_ports=41,out_ports=43,priority=59666 
rule_id=736,table_id=0,predicate=00000000000000000000000011010001,in_ports=41,out_ports=43,priority=59665 
rule_id=737,table_id=0,predicate=00000000000000000000000011010000,in_ports=41,out_ports=43,priority=59664 
rule_id=738,table_id=0,predicate=00000000000000000000000011010000,in_ports=41,out_ports=43,priority=59663 
rule_id=739,table_id=0,predicate=00000000000000000000000011010000,in_ports=41,out_ports=43,priority=59662 
rule_id=740,table_id=0,predicate=00000000000000000000000111100010,in_ports=41,out_ports=43,priority=59661 
rule_id=741,table_id=0,predicate=00000000000000000000000111100010,in_ports=41,out_ports=43,priority=59660 
rule_id=742,table_id=0,predicate=00000000000000000000000111100010,in_ports=41,out_ports=43,priority=59659 
rule_id=743,table_id=0,predicate=00000000000000000000000111100010,in_ports=41,out_ports=43,priority=59658 
rule_id=744,table_id=0,predicate=00000000000000000000000111100000,in_ports=41,out_ports=43,priority=59657 
rule_id=745,table_id=0,predicate=00000000000000000000000111100000,in_ports=41,out_ports=43,priority=59656 
rule_id=746,table_id=0,predicate=00000000000000000000000111100000,in_ports=41,out_ports=43,priority=59655 
rule_id=747,table_id=0,predicate=00000000000000000000000111100000,in_ports=41,out_ports=43,priority=59654 
rule_id=748,table_id=0,predicate=00000000000000000000011001001001,in_ports=41,out_ports=43,priority=59653 
rule_id=749,table_id=0,predicate=00000000000000000000011001001001,in_ports=41,out_ports=43,priority=59652 
rule_id=750,table_id=0,predicate=00000000000000000000011001001001,in_ports=41,out_ports=43,priority=59651 
rule_id=751,table_id=0,predicate=00000000000000000000011001001000,in_ports=41,out_ports=43,priority=59650 
rule_id=752,table_id=0,predicate=00000000000000000000011001001000,in_ports=41,out_ports=43,priority=59649 
rule_id=753,table_id=0,predicate=00000000000000000000011001001000,in_ports=41,out_ports=43,priority=59648 
rule_id=754,table_id=0,predicate=00000000000000000000011001000001,in_ports=41,out_ports=43,priority=59647 
rule_id=755,table_id=0,predicate=00000000000000000000011001000001,in_ports=41,out_ports=43,priority=59646 
rule_id=756,table_id=0,predicate=00000000000000000000011001000001,in_ports=41,out_ports=43,priority=59645 
rule_id=757,table_id=0,predicate=00000000000000000000011001000001,in_ports=41,out_ports=43,priority=59644 
rule_id=758,table_id=0,predicate=00000000000000000000011001000011,in_ports=41,out_ports=43,priority=59643 
rule_id=759,table_id=0,predicate=00000000000000000000011001000011,in_ports=41,out_ports=43,priority=59642 
rule_id=760,table_id=0,predicate=00000000000000000000011001000011,in_ports=41,out_ports=43,priority=59641 
rule_id=761,table_id=0,predicate=00000000000000000000011001000010,in_ports=41,out_ports=43,priority=59640 
rule_id=762,table_id=0,predicate=00000000000000000000011001000010,in_ports=41,out_ports=43,priority=59639 
rule_id=763,table_id=0,predicate=00000000000000000000011001000010,in_ports=41,out_ports=43,priority=59638 
rule_id=764,table_id=0,predicate=00000000000000000000011001000101,in_ports=41,out_ports=43,priority=59637 
rule_id=765,table_id=0,predicate=00000000000000000000011001000101,in_ports=41,out_ports=43,priority=59636 
rule_id=766,table_id=0,predicate=00000000000000000000011001000101,in_ports=41,out_ports=43,priority=59635 
rule_id=767,table_id=0,predicate=00000000000000000000011001000100,in_ports=41,out_ports=43,priority=59634 
rule_id=768,table_id=0,predicate=00000000000000000000011001000100,in_ports=41,out_ports=43,priority=59633 
rule_id=769,table_id=0,predicate=00000000000000000000011001000100,in_ports=41,out_ports=43,priority=59632 
rule_id=770,table_id=0,predicate=00000000000000000000011001000111,in_ports=41,out_ports=43,priority=59631 
rule_id=771,table_id=0,predicate=00000000000000000000011001000111,in_ports=41,out_ports=43,priority=59630 
rule_id=772,table_id=0,predicate=00000000000000000000011001000111,in_ports=41,out_ports=43,priority=59629 
rule_id=773,table_id=0,predicate=00000000000000000000011001000110,in_ports=41,out_ports=43,priority=59628 
rule_id=774,table_id=0,predicate=00000000000000000000011001000110,in_ports=41,out_ports=43,priority=59627 
rule_id=775,table_id=0,predicate=00000000000000000000011001000110,in_ports=41,out_ports=43,priority=59626 
rule_id=776,table_id=0,predicate=00000000000000000000000111010110,in_ports=41,out_ports=43,priority=59625 
rule_id=777,table_id=0,predicate=00000000000000000000000111010110,in_ports=41,out_ports=43,priority=59624 
rule_id=778,table_id=0,predicate=00000000000000000000000111010110,in_ports=41,out_ports=43,priority=59623 
rule_id=779,table_id=0,predicate=00000000000000000000000101011110,in_ports=41,out_ports=43,priority=59622 
rule_id=780,table_id=0,predicate=00000000000000000000000101011110,in_ports=41,out_ports=43,priority=59621 
rule_id=781,table_id=0,predicate=00000000000000000000000101011110,in_ports=41,out_ports=43,priority=59620 
rule_id=782,table_id=0,predicate=00000000000000000000000101011110,in_ports=41,out_ports=43,priority=59619 
rule_id=783,table_id=0,predicate=00000000000000000000001100100000,in_ports=41,out_ports=43,priority=59618 
rule_id=784,table_id=0,predicate=00000000000000000000001100100000,in_ports=41,out_ports=43,priority=59617 
rule_id=785,table_id=0,predicate=00000000000000000000001100100000,in_ports=41,out_ports=43,priority=59616
