table:0
rule_id=801,table_id=0,predicate=000010100000000100000001000-----,in_ports=81,out_ports=83,priority=10
rule_id=802,table_id=0,predicate=00001010000000010000000100------,in_ports=84,out_ports=83,priority=09
rule_id=803,table_id=0,predicate=000010100000000001000000001000--,in_ports=81,out_ports=83,priority=06
rule_id=804,table_id=0,predicate=00000000000000000000001011011010,in_ports=81,out_ports=83,priority=59997 
rule_id=805,table_id=0,predicate=00000000000000000000001011011010,in_ports=81,out_ports=83,priority=59996 
rule_id=806,table_id=0,predicate=00000000000000000000001011011010,in_ports=81,out_ports=83,priority=59995 
rule_id=807,table_id=0,predicate=00000000000000000000001011011010,in_ports=81,out_ports=83,priority=59994 
rule_id=808,table_id=0,predicate=00000000000000000000001011011010,in_ports=81,out_ports=83,priority=59993 
rule_id=809,table_id=0,predicate=00000000000000000000001011011010,in_ports=81,out_ports=83,priority=59992 
rule_id=810,table_id=0,predicate=00000000000000000000001011011010,in_ports=81,out_ports=83,priority=59991 
rule_id=811,table_id=0,predicate=00000000000000000000001011011010,in_ports=81,out_ports=83,priority=59990 
rule_id=812,table_id=0,predicate=00000000000000000000001011011010,in_ports=81,out_ports=83,priority=59989 
rule_id=813,table_id=0,predicate=00000000000000000000001011011010,in_ports=81,out_ports=83,priority=59988 
rule_id=814,table_id=0,predicate=00000000000000000000001011011010,in_ports=81,out_ports=83,priority=59987 
rule_id=815,table_id=0,predicate=00000000000000000000001011011010,in_ports=81,out_ports=83,priority=59986 
rule_id=816,table_id=0,predicate=00000000000000000000001011011010,in_ports=81,out_ports=83,priority=59985 
rule_id=817,table_id=0,predicate=00000000000000000000001011011010,in_ports=81,out_ports=83,priority=59984 
rule_id=818,table_id=0,predicate=00000000000000000000001011011010,in_ports=81,out_ports=83,priority=59983 
rule_id=819,table_id=0,predicate=00000000000000000000001011011010,in_ports=81,out_ports=83,priority=59982 
rule_id=820,table_id=0,predicate=00000000000000000000001011011010,in_ports=81,out_ports=83,priority=59981 
rule_id=821,table_id=0,predicate=00000000000000000000001011011010,in_ports=81,out_ports=83,priority=59980 
rule_id=822,table_id=0,predicate=00000000000000000000001011011010,in_ports=81,out_ports=83,priority=59979 
rule_id=823,table_id=0,predicate=00000000000000000000001011011010,in_ports=81,out_ports=83,priority=59978 
rule_id=824,table_id=0,predicate=00000000000000000000001011011010,in_ports=81,out_ports=83,priority=59977 
rule_id=825,table_id=0,predicate=00000000000000000000001011011010,in_ports=81,out_ports=83,priority=59976 
rule_id=826,table_id=0,predicate=00000000000000000000001011011010,in_ports=81,out_ports=83,priority=59975 
rule_id=827,table_id=0,predicate=00000000000000000000001011111000,in_ports=81,out_ports=83,priority=59974 
rule_id=828,table_id=0,predicate=00000000000000000000001011111000,in_ports=81,out_ports=83,priority=59973 
rule_id=829,table_id=0,predicate=00000000000000000000001011111000,in_ports=81,out_ports=83,priority=59972 
rule_id=830,table_id=0,predicate=00000000000000000000001011111000,in_ports=81,out_ports=83,priority=59971 
rule_id=831,table_id=0,predicate=00000000000000000000001011111000,in_ports=81,out_ports=83,priority=59970 
rule_id=832,table_id=0,predicate=00000000000000000000001011111000,in_ports=81,out_ports=83,priority=59969 
rule_id=833,table_id=0,predicate=00000000000000000000001011111000,in_ports=81,out_ports=83,priority=59968 
rule_id=834,table_id=0,predicate=00000000000000000000001011111000,in_ports=81,out_ports=83,priority=59967 
rule_id=835,table_id=0,predicate=00000000000000000000001011111000,in_ports=81,out_ports=83,priority=59966 
rule_id=836,table_id=0,predicate=00001101000011100000001000111010,in_ports=81,out_ports=83,priority=59965 
rule_id=837,table_id=0,predicate=00001101000011100000001000111010,in_ports=81,out_ports=83,priority=59964 
rule_id=838,table_id=0,predicate=00001101000011100000001000111010,in_ports=81,out_ports=83,priority=59963 
rule_id=839,table_id=0,predicate=00001101000011100000001000111010,in_ports=81,out_ports=83,priority=59962 
rule_id=840,table_id=0,predicate=11001110000100100000001000111010,in_ports=81,out_ports=83,priority=59961 
rule_id=841,table_id=0,predicate=11001110000100100000001000111010,in_ports=81,out_ports=83,priority=59960 
rule_id=842,table_id=0,predicate=11001110000100100000001000111010,in_ports=81,out_ports=83,priority=59959 
rule_id=843,table_id=0,predicate=11001110000100100000001000111010,in_ports=81,out_ports=83,priority=59958 
rule_id=844,table_id=0,predicate=01000011101000110000001000111010,in_ports=81,out_ports=83,priority=59957 
rule_id=845,table_id=0,predicate=01000011101000110000001000111010,in_ports=81,out_ports=83,priority=59956 
rule_id=846,table_id=0,predicate=01000011101000110000001000111010,in_ports=81,out_ports=83,priority=59955 
rule_id=847,table_id=0,predicate=01000011101000110000001000111010,in_ports=81,out_ports=83,priority=59954 
rule_id=848,table_id=0,predicate=10111001010101110000001000111010,in_ports=81,out_ports=83,priority=59953 
rule_id=849,table_id=0,predicate=10111001010101110000001000111010,in_ports=81,out_ports=83,priority=59952 
rule_id=850,table_id=0,predicate=10111001010101110000001000111010,in_ports=81,out_ports=83,priority=59951 
rule_id=851,table_id=0,predicate=10111001010101110000001000111010,in_ports=81,out_ports=83,priority=59950 
rule_id=852,table_id=0,predicate=00111111000011110000001000111010,in_ports=81,out_ports=83,priority=59949 
rule_id=853,table_id=0,predicate=00111111000011110000001000111010,in_ports=81,out_ports=83,priority=59948 
rule_id=854,table_id=0,predicate=00111111000011110000001000111010,in_ports=81,out_ports=83,priority=59947 
rule_id=855,table_id=0,predicate=00111111000011110000001000111010,in_ports=81,out_ports=83,priority=59946 
rule_id=856,table_id=0,predicate=00000000000000000000001000111010,in_ports=81,out_ports=83,priority=59945 
rule_id=857,table_id=0,predicate=00000000000000000000001000111010,in_ports=81,out_ports=83,priority=59944 
rule_id=858,table_id=0,predicate=00000000000000000000001000111010,in_ports=81,out_ports=83,priority=59943 
rule_id=859,table_id=0,predicate=00000000000000000000001000111010,in_ports=81,out_ports=83,priority=59942 
rule_id=860,table_id=0,predicate=00000000000000000000001000111010,in_ports=81,out_ports=83,priority=59941 
rule_id=861,table_id=0,predicate=00000000000000000000001000111010,in_ports=81,out_ports=83,priority=59940 
rule_id=862,table_id=0,predicate=00000000000000000000000011010010,in_ports=81,out_ports=83,priority=59939 
rule_id=863,table_id=0,predicate=00000000000000000000000011010010,in_ports=81,out_ports=83,priority=59938 
rule_id=864,table_id=0,predicate=00000000000000000000000011010010,in_ports=81,out_ports=83,priority=59937 
rule_id=865,table_id=0,predicate=00000000000000000000000011010010,in_ports=81,out_ports=83,priority=59936 
rule_id=866,table_id=0,predicate=00000000000000000000001010011001,in_ports=81,out_ports=83,priority=59935 
rule_id=867,table_id=0,predicate=00000000000000000000001010011001,in_ports=81,out_ports=83,priority=59934 
rule_id=868,table_id=0,predicate=00000000000000000000001010011001,in_ports=81,out_ports=83,priority=59933 
rule_id=869,table_id=0,predicate=00000000000000000000001010011001,in_ports=81,out_ports=83,priority=59932 
rule_id=870,table_id=0,predicate=00000000000000000000001010010101,in_ports=81,out_ports=83,priority=59931 
rule_id=871,table_id=0,predicate=00000000000000000000001010010101,in_ports=81,out_ports=83,priority=59930 
rule_id=872,table_id=0,predicate=00000000000000000000001010010101,in_ports=81,out_ports=83,priority=59929 
rule_id=873,table_id=0,predicate=00000000000000000000001010010101,in_ports=81,out_ports=83,priority=59928 
rule_id=874,table_id=0,predicate=00000000000000000000001010010100,in_ports=81,out_ports=83,priority=59927 
rule_id=875,table_id=0,predicate=00000000000000000000001010010100,in_ports=81,out_ports=83,priority=59926 
rule_id=876,table_id=0,predicate=00000000000000000000001010010100,in_ports=81,out_ports=83,priority=59925 
rule_id=877,table_id=0,predicate=00000000000000000000001010010100,in_ports=81,out_ports=83,priority=59924 
rule_id=878,table_id=0,predicate=00000000000000000000000111101010,in_ports=81,out_ports=83,priority=59923 
rule_id=879,table_id=0,predicate=00000000000000000000000111101010,in_ports=81,out_ports=83,priority=59922 
rule_id=880,table_id=0,predicate=00000000000000000000000111101010,in_ports=81,out_ports=83,priority=59921 
rule_id=881,table_id=0,predicate=00000000000000000000000111101010,in_ports=81,out_ports=83,priority=59920 
rule_id=882,table_id=0,predicate=00000000000000000000000111101010,in_ports=81,out_ports=83,priority=59919 
rule_id=883,table_id=0,predicate=00000000000000000000011000001001,in_ports=81,out_ports=83,priority=59918 
rule_id=884,table_id=0,predicate=00000000000000000000011000001001,in_ports=81,out_ports=83,priority=59917 
rule_id=885,table_id=0,predicate=00000000000000000000011000001001,in_ports=81,out_ports=83,priority=59916 
rule_id=886,table_id=0,predicate=00000000000000000000011000000100,in_ports=81,out_ports=83,priority=59915 
rule_id=887,table_id=0,predicate=00000000000000000000011000000100,in_ports=81,out_ports=83,priority=59914 
rule_id=888,table_id=0,predicate=00000000000000000000011000000100,in_ports=81,out_ports=83,priority=59913 
rule_id=889,table_id=0,predicate=00000000000000000000011000000101,in_ports=81,out_ports=83,priority=59912 
rule_id=890,table_id=0,predicate=00000000000000000000011000000101,in_ports=81,out_ports=83,priority=59911 
rule_id=891,table_id=0,predicate=00000000000000000000011000000101,in_ports=81,out_ports=83,priority=59910 
rule_id=892,table_id=0,predicate=00000000000000000000011000111111,in_ports=81,out_ports=83,priority=59909 
rule_id=893,table_id=0,predicate=00000000000000000000011000111111,in_ports=81,out_ports=83,priority=59908 
rule_id=894,table_id=0,predicate=00000000000000000000011000111111,in_ports=81,out_ports=83,priority=59907 
rule_id=895,table_id=0,predicate=00000000000000000000010000110000,in_ports=81,out_ports=83,priority=59906 
rule_id=896,table_id=0,predicate=00000000000000000000010000110000,in_ports=81,out_ports=83,priority=59905 
rule_id=897,table_id=0,predicate=00000000000000000000010000110000,in_ports=81,out_ports=83,priority=59904 
rule_id=898,table_id=0,predicate=00000000000000000000010000110000,in_ports=81,out_ports=83,priority=59903 
rule_id=899,table_id=0,predicate=00000000000000000000010000101110,in_ports=81,out_ports=83,priority=59902 
rule_id=900,table_id=0,predicate=00000000000000000000010000101110,in_ports=81,out_ports=83,priority=59901 
rule_id=901,table_id=0,predicate=00000000000000000000010000101110,in_ports=81,out_ports=83,priority=59900 
rule_id=902,table_id=0,predicate=00000000000000000000010000101111,in_ports=81,out_ports=83,priority=59899 
rule_id=903,table_id=0,predicate=00000000000000000000010000101111,in_ports=81,out_ports=83,priority=59898 
rule_id=904,table_id=0,predicate=00000000000000000000010000101111,in_ports=81,out_ports=83,priority=59897 
rule_id=905,table_id=0,predicate=00000000000000000000010000101111,in_ports=81,out_ports=83,priority=59896 
rule_id=906,table_id=0,predicate=00000000000000000000001000011100,in_ports=81,out_ports=83,priority=59895 
rule_id=907,table_id=0,predicate=00000000000000000000001000011100,in_ports=81,out_ports=83,priority=59894 
rule_id=908,table_id=0,predicate=00000000000000000000001000011100,in_ports=81,out_ports=83,priority=59893 
rule_id=909,table_id=0,predicate=00000000000000000000001000011100,in_ports=81,out_ports=83,priority=59892 
rule_id=910,table_id=0,predicate=00000000000000000000001100101010,in_ports=81,out_ports=83,priority=59891 
rule_id=911,table_id=0,predicate=00000000000000000000001100101010,in_ports=81,out_ports=83,priority=59890 
rule_id=912,table_id=0,predicate=00000000000000000000001100101010,in_ports=81,out_ports=83,priority=59889 
rule_id=913,table_id=0,predicate=00000000000000000000001100101010,in_ports=81,out_ports=83,priority=59888 
rule_id=914,table_id=0,predicate=00000000000000000000001011111000,in_ports=81,out_ports=83,priority=59887 
rule_id=915,table_id=0,predicate=00000000000000000000001011111000,in_ports=81,out_ports=83,priority=59886 
rule_id=916,table_id=0,predicate=00000000000000000000001011111000,in_ports=81,out_ports=83,priority=59885 
rule_id=917,table_id=0,predicate=00000000000000000000001000111010,in_ports=81,out_ports=83,priority=59884 
rule_id=918,table_id=0,predicate=00000000000000000000001000111010,in_ports=81,out_ports=83,priority=59883 
rule_id=919,table_id=0,predicate=00000000000000000000001000111010,in_ports=81,out_ports=83,priority=59882 
rule_id=920,table_id=0,predicate=00000000000000000000001000111010,in_ports=81,out_ports=83,priority=59881 
rule_id=921,table_id=0,predicate=00000000000000000000001111011110,in_ports=81,out_ports=83,priority=59880 
rule_id=922,table_id=0,predicate=00000000000000000000001111011110,in_ports=81,out_ports=83,priority=59879 
rule_id=923,table_id=0,predicate=00000000000000000000001111011110,in_ports=81,out_ports=83,priority=59878 
rule_id=924,table_id=0,predicate=00000000000000000000001111100111,in_ports=81,out_ports=83,priority=59877 
rule_id=925,table_id=0,predicate=00000000000000000000001111100111,in_ports=81,out_ports=83,priority=59876 
rule_id=926,table_id=0,predicate=00000000000000000000001111100111,in_ports=81,out_ports=83,priority=59875 
rule_id=927,table_id=0,predicate=00000000000000000000001111100111,in_ports=81,out_ports=83,priority=59874 
rule_id=928,table_id=0,predicate=00000000000000000000001011001000,in_ports=81,out_ports=83,priority=59873 
rule_id=929,table_id=0,predicate=00000000000000000000001011001000,in_ports=81,out_ports=83,priority=59872 
rule_id=930,table_id=0,predicate=00000000000000000000001011001000,in_ports=81,out_ports=83,priority=59871 
rule_id=931,table_id=0,predicate=00000000000000000000001011001000,in_ports=81,out_ports=83,priority=59870 
rule_id=932,table_id=0,predicate=00000000000000000000001011001000,in_ports=81,out_ports=83,priority=59869 
rule_id=933,table_id=0,predicate=00000000000000000000001011001000,in_ports=81,out_ports=83,priority=59868 
rule_id=934,table_id=0,predicate=00000000000000000000001011001000,in_ports=81,out_ports=83,priority=59867 
rule_id=935,table_id=0,predicate=00000000000000000000001011001000,in_ports=81,out_ports=83,priority=59866 
rule_id=936,table_id=0,predicate=00000000000000000000001011001000,in_ports=81,out_ports=83,priority=59865 
rule_id=937,table_id=0,predicate=00000000000000000000001011001000,in_ports=81,out_ports=83,priority=59864 
rule_id=938,table_id=0,predicate=00000000000000000000001011001000,in_ports=81,out_ports=83,priority=59863 
rule_id=939,table_id=0,predicate=00000000000000000000001011001000,in_ports=81,out_ports=83,priority=59862 
rule_id=940,table_id=0,predicate=00000000000000000000001011000111,in_ports=81,out_ports=83,priority=59861 
rule_id=941,table_id=0,predicate=00000000000000000000001011000111,in_ports=81,out_ports=83,priority=59860 
rule_id=942,table_id=0,predicate=00000000000000000000001011000111,in_ports=81,out_ports=83,priority=59859 
rule_id=943,table_id=0,predicate=00000000000000000000001011000111,in_ports=81,out_ports=83,priority=59858 
rule_id=944,table_id=0,predicate=00000000000000000000001011000111,in_ports=81,out_ports=83,priority=59857 
rule_id=945,table_id=0,predicate=00000000000000000000001011000111,in_ports=81,out_ports=83,priority=59856 
rule_id=946,table_id=0,predicate=00000000000000000000001011000111,in_ports=81,out_ports=83,priority=59855 
rule_id=947,table_id=0,predicate=00000000000000000000001011000111,in_ports=81,out_ports=83,priority=59854 
rule_id=948,table_id=0,predicate=00000000000000000000001011000111,in_ports=81,out_ports=83,priority=59853 
rule_id=949,table_id=0,predicate=00000000000000000000001011000111,in_ports=81,out_ports=83,priority=59852 
rule_id=950,table_id=0,predicate=00000000000000000000001011000111,in_ports=81,out_ports=83,priority=59851 
rule_id=951,table_id=0,predicate=00000000000000000000001011000111,in_ports=81,out_ports=83,priority=59850 
rule_id=952,table_id=0,predicate=00000000000000000000001011000111,in_ports=81,out_ports=83,priority=59849 
rule_id=953,table_id=0,predicate=00000000000000000000001011000110,in_ports=81,out_ports=83,priority=59848 
rule_id=954,table_id=0,predicate=00000000000000000000001011000110,in_ports=81,out_ports=83,priority=59847 
rule_id=955,table_id=0,predicate=00000000000000000000001011000110,in_ports=81,out_ports=83,priority=59846 
rule_id=956,table_id=0,predicate=00000000000000000000001011000110,in_ports=81,out_ports=83,priority=59845 
rule_id=957,table_id=0,predicate=00000000000000000000001011000110,in_ports=81,out_ports=83,priority=59844 
rule_id=958,table_id=0,predicate=00000000000000000000001011000110,in_ports=81,out_ports=83,priority=59843 
rule_id=959,table_id=0,predicate=00000000000000000000001011000110,in_ports=81,out_ports=83,priority=59842 
rule_id=960,table_id=0,predicate=00000000000000000000001011000110,in_ports=81,out_ports=83,priority=59841 
rule_id=961,table_id=0,predicate=00000000000000000000001011000110,in_ports=81,out_ports=83,priority=59840 
rule_id=962,table_id=0,predicate=00000000000000000000001011000110,in_ports=81,out_ports=83,priority=59839 
rule_id=963,table_id=0,predicate=00000000000000000000001011000110,in_ports=81,out_ports=83,priority=59838 
rule_id=964,table_id=0,predicate=00000000000000000000001011000110,in_ports=81,out_ports=83,priority=59837 
rule_id=965,table_id=0,predicate=00000000000000000000001011000110,in_ports=81,out_ports=83,priority=59836 
rule_id=966,table_id=0,predicate=00000000000000000000000000000010,in_ports=81,out_ports=83,priority=59835 
rule_id=967,table_id=0,predicate=00000000000000000000000000000010,in_ports=81,out_ports=83,priority=59834 
rule_id=968,table_id=0,predicate=00000000000000000000010000101101,in_ports=81,out_ports=83,priority=59833 
rule_id=969,table_id=0,predicate=00000000000000000000010000101101,in_ports=81,out_ports=83,priority=59832 
rule_id=970,table_id=0,predicate=00000000000000000000010000101101,in_ports=81,out_ports=83,priority=59831 
rule_id=971,table_id=0,predicate=00000000000000000000010000101101,in_ports=81,out_ports=83,priority=59830 
rule_id=972,table_id=0,predicate=00000000000000000000000000110010,in_ports=81,out_ports=83,priority=59829 
rule_id=973,table_id=0,predicate=00000000000000000000000000110010,in_ports=81,out_ports=83,priority=59828 
rule_id=974,table_id=0,predicate=00000000000000000000000000110010,in_ports=81,out_ports=83,priority=59827 
rule_id=975,table_id=0,predicate=00000000000000000000000000110010,in_ports=81,out_ports=83,priority=59826 
rule_id=976,table_id=0,predicate=00000000000000000000000000110010,in_ports=81,out_ports=83,priority=59825 
rule_id=977,table_id=0,predicate=00000000000000000000001000010110,in_ports=81,out_ports=83,priority=59824 
rule_id=978,table_id=0,predicate=00000000000000000000001000010110,in_ports=81,out_ports=83,priority=59823 
rule_id=979,table_id=0,predicate=00000000000000000000001000010110,in_ports=81,out_ports=83,priority=59822 
rule_id=980,table_id=0,predicate=00000000000000000000001000010110,in_ports=81,out_ports=83,priority=59821 
rule_id=981,table_id=0,predicate=00000000000000000000001000010101,in_ports=81,out_ports=83,priority=59820 
rule_id=982,table_id=0,predicate=00000000000000000000001000010101,in_ports=81,out_ports=83,priority=59819 
rule_id=983,table_id=0,predicate=00000000000000000000001000010101,in_ports=81,out_ports=83,priority=59818 
rule_id=984,table_id=0,predicate=00000000000000000000001000010101,in_ports=81,out_ports=83,priority=59817 
rule_id=985,table_id=0,predicate=00000000000000000000001000010100,in_ports=81,out_ports=83,priority=59816 
rule_id=986,table_id=0,predicate=00000000000000000000001000010100,in_ports=81,out_ports=83,priority=59815 
rule_id=987,table_id=0,predicate=00000000000000000000001000010100,in_ports=81,out_ports=83,priority=59814 
rule_id=988,table_id=0,predicate=00000000000000000000001000010100,in_ports=81,out_ports=83,priority=59813 
rule_id=989,table_id=0,predicate=00000000000000000000001000010011,in_ports=81,out_ports=83,priority=59812 
rule_id=990,table_id=0,predicate=00000000000000000000001000010011,in_ports=81,out_ports=83,priority=59811 
rule_id=991,table_id=0,predicate=00000000000000000000001000010011,in_ports=81,out_ports=83,priority=59810 
rule_id=992,table_id=0,predicate=00000000000000000000001000010011,in_ports=81,out_ports=83,priority=59809 
rule_id=993,table_id=0,predicate=00000000000000000000001000010010,in_ports=81,out_ports=83,priority=59808 
rule_id=994,table_id=0,predicate=00000000000000000000001000010010,in_ports=81,out_ports=83,priority=59807 
rule_id=995,table_id=0,predicate=00000000000000000000001000010010,in_ports=81,out_ports=83,priority=59806 
rule_id=996,table_id=0,predicate=00000000000000000000001000010010,in_ports=81,out_ports=83,priority=59805 
rule_id=997,table_id=0,predicate=00000000000000000000001110011000,in_ports=81,out_ports=83,priority=59804 
rule_id=998,table_id=0,predicate=00000000000000000000001110011000,in_ports=81,out_ports=83,priority=59803 
rule_id=999,table_id=0,predicate=00000000000000000000001110011000,in_ports=81,out_ports=83,priority=59802 
rule_id=1000,table_id=0,predicate=00000000000000000000001100110100,in_ports=81,out_ports=83,priority=59801 
rule_id=1001,table_id=0,predicate=00000000000000000000001100110100,in_ports=81,out_ports=83,priority=59800 
rule_id=1002,table_id=0,predicate=00000000000000000000001100110100,in_ports=81,out_ports=83,priority=59799 
rule_id=1003,table_id=0,predicate=00000000000000000000001100110100,in_ports=81,out_ports=83,priority=59798 
rule_id=1004,table_id=0,predicate=00000000000000000000000100100010,in_ports=81,out_ports=83,priority=59797 
rule_id=1005,table_id=0,predicate=00000000000000000000000100100010,in_ports=81,out_ports=83,priority=59796 
rule_id=1006,table_id=0,predicate=00000000000000000000000100100010,in_ports=81,out_ports=83,priority=59795 
rule_id=1007,table_id=0,predicate=00000000000000000000000100100010,in_ports=81,out_ports=83,priority=59794 
rule_id=1008,table_id=0,predicate=00000000000000000000010010011001,in_ports=81,out_ports=83,priority=59793 
rule_id=1009,table_id=0,predicate=00000000000000000000010010011001,in_ports=81,out_ports=83,priority=59792 
rule_id=1010,table_id=0,predicate=00000000000000000000010010011001,in_ports=81,out_ports=83,priority=59791 
rule_id=1011,table_id=0,predicate=00000000000000000000001001010000,in_ports=81,out_ports=83,priority=59790 
rule_id=1012,table_id=0,predicate=00000000000000000000001001010000,in_ports=81,out_ports=83,priority=59789 
rule_id=1013,table_id=0,predicate=00000000000000000000001001010000,in_ports=81,out_ports=83,priority=59788 
rule_id=1014,table_id=0,predicate=00000000000000000000001001010000,in_ports=81,out_ports=83,priority=59787 
rule_id=1015,table_id=0,predicate=00000000000000000000000011000111,in_ports=81,out_ports=83,priority=59786 
rule_id=1016,table_id=0,predicate=00000000000000000000000011000111,in_ports=81,out_ports=83,priority=59785 
rule_id=1017,table_id=0,predicate=00000000000000000000000011000111,in_ports=81,out_ports=83,priority=59784 
rule_id=1018,table_id=0,predicate=00000000000000000000000011000110,in_ports=81,out_ports=83,priority=59783 
rule_id=1019,table_id=0,predicate=00000000000000000000000011000110,in_ports=81,out_ports=83,priority=59782 
rule_id=1020,table_id=0,predicate=00000000000000000000000011000110,in_ports=81,out_ports=83,priority=59781 
rule_id=1021,table_id=0,predicate=00000000000000000000000011000110,in_ports=81,out_ports=83,priority=59780 
rule_id=1022,table_id=0,predicate=00000000000000000000001001010100,in_ports=81,out_ports=83,priority=59779 
rule_id=1023,table_id=0,predicate=00000000000000000000001001010100,in_ports=81,out_ports=83,priority=59778 
rule_id=1024,table_id=0,predicate=00000000000000000000001001010100,in_ports=81,out_ports=83,priority=59777 
rule_id=1025,table_id=0,predicate=00000000000000000000001001010100,in_ports=81,out_ports=83,priority=59776 
rule_id=1026,table_id=0,predicate=00000000000000000000001011000000,in_ports=81,out_ports=83,priority=59775 
rule_id=1027,table_id=0,predicate=00000000000000000000001011000000,in_ports=81,out_ports=83,priority=59774 
rule_id=1028,table_id=0,predicate=00000000000000000000001011000000,in_ports=81,out_ports=83,priority=59773 
rule_id=1029,table_id=0,predicate=00000000000000000000001011000000,in_ports=81,out_ports=83,priority=59772 
rule_id=1030,table_id=0,predicate=00000000000000000000001011000000,in_ports=81,out_ports=83,priority=59771 
rule_id=1031,table_id=0,predicate=00000000000000000000001011000000,in_ports=81,out_ports=83,priority=59770 
rule_id=1032,table_id=0,predicate=00000000000000000000001011000000,in_ports=81,out_ports=83,priority=59769 
rule_id=1033,table_id=0,predicate=00000000000000000000001011000000,in_ports=81,out_ports=83,priority=59768 
rule_id=1034,table_id=0,predicate=00000000000000000000001011000000,in_ports=81,out_ports=83,priority=59767 
rule_id=1035,table_id=0,predicate=00000000000000000000001011000000,in_ports=81,out_ports=83,priority=59766 
rule_id=1036,table_id=0,predicate=00000000000000000000001011000000,in_ports=81,out_ports=83,priority=59765 
rule_id=1037,table_id=0,predicate=00000000000000000000001011000000,in_ports=81,out_ports=83,priority=59764 
rule_id=1038,table_id=0,predicate=00000000000000000000001011000000,in_ports=81,out_ports=83,priority=59763 
rule_id=1039,table_id=0,predicate=00000000000000000000001001010110,in_ports=81,out_ports=83,priority=59762 
rule_id=1040,table_id=0,predicate=00000000000000000000001001010110,in_ports=81,out_ports=83,priority=59761 
rule_id=1041,table_id=0,predicate=00000000000000000000001001010110,in_ports=81,out_ports=83,priority=59760 
rule_id=1042,table_id=0,predicate=00000000000000000000001001010110,in_ports=81,out_ports=83,priority=59759 
rule_id=1043,table_id=0,predicate=00000000000000000000001011000010,in_ports=81,out_ports=83,priority=59758 
rule_id=1044,table_id=0,predicate=00000000000000000000001011000010,in_ports=81,out_ports=83,priority=59757 
rule_id=1045,table_id=0,predicate=00000000000000000000001011000010,in_ports=81,out_ports=83,priority=59756 
rule_id=1046,table_id=0,predicate=00000000000000000000001011000010,in_ports=81,out_ports=83,priority=59755 
rule_id=1047,table_id=0,predicate=00000000000000000000001011000010,in_ports=81,out_ports=83,priority=59754 
rule_id=1048,table_id=0,predicate=00000000000000000000001011000010,in_ports=81,out_ports=83,priority=59753 
rule_id=1049,table_id=0,predicate=00000000000000000000001011000010,in_ports=81,out_ports=83,priority=59752 
rule_id=1050,table_id=0,predicate=00000000000000000000001011000010,in_ports=81,out_ports=83,priority=59751 
rule_id=1051,table_id=0,predicate=00000000000000000000001011000010,in_ports=81,out_ports=83,priority=59750 
rule_id=1052,table_id=0,predicate=00000000000000000000001011000010,in_ports=81,out_ports=83,priority=59749 
rule_id=1053,table_id=0,predicate=00000000000000000000001011000010,in_ports=81,out_ports=83,priority=59748 
rule_id=1054,table_id=0,predicate=00000000000000000000001011000010,in_ports=81,out_ports=83,priority=59747 
rule_id=1055,table_id=0,predicate=00000000000000000000001011000010,in_ports=81,out_ports=83,priority=59746 
rule_id=1056,table_id=0,predicate=00000000000000000000001011000011,in_ports=81,out_ports=83,priority=59745 
rule_id=1057,table_id=0,predicate=00000000000000000000001011000011,in_ports=81,out_ports=83,priority=59744 
rule_id=1058,table_id=0,predicate=00000000000000000000001011000011,in_ports=81,out_ports=83,priority=59743 
rule_id=1059,table_id=0,predicate=00000000000000000000001011000011,in_ports=81,out_ports=83,priority=59742 
rule_id=1060,table_id=0,predicate=00000000000000000000001011000011,in_ports=81,out_ports=83,priority=59741 
rule_id=1061,table_id=0,predicate=00000000000000000000001011000011,in_ports=81,out_ports=83,priority=59740 
rule_id=1062,table_id=0,predicate=00000000000000000000001011000011,in_ports=81,out_ports=83,priority=59739 
rule_id=1063,table_id=0,predicate=00000000000000000000001011000011,in_ports=81,out_ports=83,priority=59738 
rule_id=1064,table_id=0,predicate=00000000000000000000001011000011,in_ports=81,out_ports=83,priority=59737 
rule_id=1065,table_id=0,predicate=00000000000000000000001011000011,in_ports=81,out_ports=83,priority=59736 
rule_id=1066,table_id=0,predicate=00000000000000000000001011000011,in_ports=81,out_ports=83,priority=59735 
rule_id=1067,table_id=0,predicate=00000000000000000000001011000011,in_ports=81,out_ports=83,priority=59734 
rule_id=1068,table_id=0,predicate=00000000000000000000001011000011,in_ports=81,out_ports=83,priority=59733 
rule_id=1069,table_id=0,predicate=00000000000000000000001010111100,in_ports=81,out_ports=83,priority=59732 
rule_id=1070,table_id=0,predicate=00000000000000000000001010111100,in_ports=81,out_ports=83,priority=59731 
rule_id=1071,table_id=0,predicate=00000000000000000000001010111100,in_ports=81,out_ports=83,priority=59730 
rule_id=1072,table_id=0,predicate=00000000000000000000001010111100,in_ports=81,out_ports=83,priority=59729 
rule_id=1073,table_id=0,predicate=00000000000000000000001010111100,in_ports=81,out_ports=83,priority=59728 
rule_id=1074,table_id=0,predicate=00000000000000000000001010111100,in_ports=81,out_ports=83,priority=59727 
rule_id=1075,table_id=0,predicate=00000000000000000000001010111100,in_ports=81,out_ports=83,priority=59726 
rule_id=1076,table_id=0,predicate=00000000000000000000001010111100,in_ports=81,out_ports=83,priority=59725 
rule_id=1077,table_id=0,predicate=00000000000000000000001010111100,in_ports=81,out_ports=83,priority=59724 
rule_id=1078,table_id=0,predicate=00000000000000000000001010111100,in_ports=81,out_ports=83,priority=59723 
rule_id=1079,table_id=0,predicate=00000000000000000000001010111100,in_ports=81,out_ports=83,priority=59722 
rule_id=1080,table_id=0,predicate=00000000000000000000001010111100,in_ports=81,out_ports=83,priority=59721 
rule_id=1081,table_id=0,predicate=00000000000000000000001010111100,in_ports=81,out_ports=83,priority=59720 
rule_id=1082,table_id=0,predicate=00000000000000000000000010111110,in_ports=81,out_ports=83,priority=59719 
rule_id=1083,table_id=0,predicate=00000000000000000000000010111110,in_ports=81,out_ports=83,priority=59718 
rule_id=1084,table_id=0,predicate=00000000000000000000000010111110,in_ports=81,out_ports=83,priority=59717 
rule_id=1085,table_id=0,predicate=00000000000000000000000010111110,in_ports=81,out_ports=83,priority=59716 
rule_id=1086,table_id=0,predicate=00000000000000000000001010111110,in_ports=81,out_ports=83,priority=59715 
rule_id=1087,table_id=0,predicate=00000000000000000000001010111110,in_ports=81,out_ports=83,priority=59714 
rule_id=1088,table_id=0,predicate=00000000000000000000001010111110,in_ports=81,out_ports=83,priority=59713 
rule_id=1089,table_id=0,predicate=00000000000000000000001010111110,in_ports=81,out_ports=83,priority=59712 
rule_id=1090,table_id=0,predicate=00000000000000000000001010111110,in_ports=81,out_ports=83,priority=59711 
rule_id=1091,table_id=0,predicate=00000000000000000000001010111110,in_ports=81,out_ports=83,priority=59710 
rule_id=1092,table_id=0,predicate=00000000000000000000001010111110,in_ports=81,out_ports=83,priority=59709 
rule_id=1093,table_id=0,predicate=00000000000000000000001010111110,in_ports=81,out_ports=83,priority=59708 
rule_id=1094,table_id=0,predicate=00000000000000000000001010111110,in_ports=81,out_ports=83,priority=59707 
rule_id=1095,table_id=0,predicate=00000000000000000000001010111110,in_ports=81,out_ports=83,priority=59706 
rule_id=1096,table_id=0,predicate=00000000000000000000001010111110,in_ports=81,out_ports=83,priority=59705 
rule_id=1097,table_id=0,predicate=00000000000000000000001010111110,in_ports=81,out_ports=83,priority=59704 
rule_id=1098,table_id=0,predicate=00000000000000000000001010111110,in_ports=81,out_ports=83,priority=59703 
rule_id=1099,table_id=0,predicate=00000000000000000000001010111111,in_ports=81,out_ports=83,priority=59702 
rule_id=1100,table_id=0,predicate=00000000000000000000001010111111,in_ports=81,out_ports=83,priority=59701 
rule_id=1101,table_id=0,predicate=00000000000000000000001010111111,in_ports=81,out_ports=83,priority=59700 
rule_id=1102,table_id=0,predicate=00000000000000000000001010111111,in_ports=81,out_ports=83,priority=59699 
rule_id=1103,table_id=0,predicate=00000000000000000000001010111111,in_ports=81,out_ports=83,priority=59698 
rule_id=1104,table_id=0,predicate=00000000000000000000001010111111,in_ports=81,out_ports=83,priority=59697 
rule_id=1105,table_id=0,predicate=00000000000000000000001010111111,in_ports=81,out_ports=83,priority=59696 
rule_id=1106,table_id=0,predicate=00000000000000000000001010111111,in_ports=81,out_ports=83,priority=59695 
rule_id=1107,table_id=0,predicate=00000000000000000000001010111111,in_ports=81,out_ports=83,priority=59694 
rule_id=1108,table_id=0,predicate=00000000000000000000001010111111,in_ports=81,out_ports=83,priority=59693 
rule_id=1109,table_id=0,predicate=00000000000000000000001010111111,in_ports=81,out_ports=83,priority=59692 
rule_id=1110,table_id=0,predicate=00000000000000000000001010111111,in_ports=81,out_ports=83,priority=59691 
rule_id=1111,table_id=0,predicate=00000000000000000000001010111111,in_ports=81,out_ports=83,priority=59690 
rule_id=1112,table_id=0,predicate=00000000000000000000001100011011,in_ports=81,out_ports=83,priority=59689 
rule_id=1113,table_id=0,predicate=00000000000000000000001100011011,in_ports=81,out_ports=83,priority=59688 
rule_id=1114,table_id=0,predicate=00000000000000000000001100011011,in_ports=81,out_ports=83,priority=59687 
rule_id=1115,table_id=0,predicate=00000000000000000000001100011000,in_ports=81,out_ports=83,priority=59686 
rule_id=1116,table_id=0,predicate=00000000000000000000001100011000,in_ports=81,out_ports=83,priority=59685 
rule_id=1117,table_id=0,predicate=00000000000000000000001100011000,in_ports=81,out_ports=83,priority=59684 
rule_id=1118,table_id=0,predicate=00000000000000000000001100011000,in_ports=81,out_ports=83,priority=59683 
rule_id=1119,table_id=0,predicate=00000000000000000000001100011000,in_ports=81,out_ports=83,priority=59682 
rule_id=1120,table_id=0,predicate=00000000000000000000001100010111,in_ports=81,out_ports=83,priority=59681 
rule_id=1121,table_id=0,predicate=00000000000000000000001100010111,in_ports=81,out_ports=83,priority=59680 
rule_id=1122,table_id=0,predicate=00000000000000000000001100010111,in_ports=81,out_ports=83,priority=59679 
rule_id=1123,table_id=0,predicate=00000000000000000000001100010111,in_ports=81,out_ports=83,priority=59678 
rule_id=1124,table_id=0,predicate=00000000000000000000001100010111,in_ports=81,out_ports=83,priority=59677 
rule_id=1125,table_id=0,predicate=00000000000000000000001100010111,in_ports=81,out_ports=83,priority=59676 
rule_id=1126,table_id=0,predicate=00000000000000000000001100010110,in_ports=81,out_ports=83,priority=59675 
rule_id=1127,table_id=0,predicate=00000000000000000000001100010110,in_ports=81,out_ports=83,priority=59674 
rule_id=1128,table_id=0,predicate=00000000000000000000001100010110,in_ports=81,out_ports=83,priority=59673 
rule_id=1129,table_id=0,predicate=00000000000000000000001100010110,in_ports=81,out_ports=83,priority=59672 
rule_id=1130,table_id=0,predicate=00000000000000000000001100010110,in_ports=81,out_ports=83,priority=59671 
rule_id=1131,table_id=0,predicate=00000000000000000000001101000111,in_ports=81,out_ports=83,priority=59670 
rule_id=1132,table_id=0,predicate=00000000000000000000001101000111,in_ports=81,out_ports=83,priority=59669 
rule_id=1133,table_id=0,predicate=00000000000000000000001101000111,in_ports=81,out_ports=83,priority=59668 
rule_id=1134,table_id=0,predicate=00000000000000000000001101000111,in_ports=81,out_ports=83,priority=59667 
rule_id=1135,table_id=0,predicate=00000000000000000000101000101010,in_ports=81,out_ports=83,priority=59666 
rule_id=1136,table_id=0,predicate=00000000000000000000101000101010,in_ports=81,out_ports=83,priority=59665 
rule_id=1137,table_id=0,predicate=00000000000000000000101000101010,in_ports=81,out_ports=83,priority=59664 
rule_id=1138,table_id=0,predicate=00000000000000000000101000101010,in_ports=81,out_ports=83,priority=59663 
rule_id=1139,table_id=0,predicate=00000000000000000000001000001101,in_ports=81,out_ports=83,priority=59662 
rule_id=1140,table_id=0,predicate=00000000000000000000001000001101,in_ports=81,out_ports=83,priority=59661 
rule_id=1141,table_id=0,predicate=00000000000000000000001000001101,in_ports=81,out_ports=83,priority=59660 
rule_id=1142,table_id=0,predicate=00000000000000000000001000001101,in_ports=81,out_ports=83,priority=59659 
rule_id=1143,table_id=0,predicate=00000000000000000000000000000011,in_ports=81,out_ports=83,priority=59658 
rule_id=1144,table_id=0,predicate=00000000000000000000000000000011,in_ports=81,out_ports=83,priority=59657 
rule_id=1145,table_id=0,predicate=00000000000000000000001000001000,in_ports=81,out_ports=83,priority=59656 
rule_id=1146,table_id=0,predicate=00000000000000000000001000001000,in_ports=81,out_ports=83,priority=59655 
rule_id=1147,table_id=0,predicate=00000000000000000000001000001000,in_ports=81,out_ports=83,priority=59654 
rule_id=1148,table_id=0,predicate=00000000000000000000001000001000,in_ports=81,out_ports=83,priority=59653 
rule_id=1149,table_id=0,predicate=00000000000000000000000110100100,in_ports=81,out_ports=83,priority=59652 
rule_id=1150,table_id=0,predicate=00000000000000000000000110100100,in_ports=81,out_ports=83,priority=59651 
rule_id=1151,table_id=0,predicate=00000000000000000000000110100100,in_ports=81,out_ports=83,priority=59650 
rule_id=1152,table_id=0,predicate=00000000000000000000001110001110,in_ports=81,out_ports=83,priority=59649 
rule_id=1153,table_id=0,predicate=00000000000000000000001110001110,in_ports=81,out_ports=83,priority=59648 
rule_id=1154,table_id=0,predicate=00000000000000000000001110001110,in_ports=81,out_ports=83,priority=59647 
rule_id=1155,table_id=0,predicate=00000000000000000000001110001110,in_ports=81,out_ports=83,priority=59646 
rule_id=1156,table_id=0,predicate=00000000000000000000010111101110,in_ports=81,out_ports=83,priority=59645 
rule_id=1157,table_id=0,predicate=00000000000000000000010111101110,in_ports=81,out_ports=83,priority=59644 
rule_id=1158,table_id=0,predicate=00000000000000000000010111101110,in_ports=81,out_ports=83,priority=59643 
rule_id=1159,table_id=0,predicate=00000000000000000000001001000100,in_ports=81,out_ports=83,priority=59642 
rule_id=1160,table_id=0,predicate=00000000000000000000001001000100,in_ports=81,out_ports=83,priority=59641 
rule_id=1161,table_id=0,predicate=00000000000000000000001001000100,in_ports=81,out_ports=83,priority=59640 
rule_id=1162,table_id=0,predicate=00000000000000000000001001000100,in_ports=81,out_ports=83,priority=59639 
rule_id=1163,table_id=0,predicate=00000000000000000000001100010001,in_ports=81,out_ports=83,priority=59638 
rule_id=1164,table_id=0,predicate=00000000000000000000001100010001,in_ports=81,out_ports=83,priority=59637 
rule_id=1165,table_id=0,predicate=00000000000000000000001100010001,in_ports=81,out_ports=83,priority=59636 
rule_id=1166,table_id=0,predicate=00000000000000000000001100010001,in_ports=81,out_ports=83,priority=59635 
rule_id=1167,table_id=0,predicate=00000000000000000000001100010001,in_ports=81,out_ports=83,priority=59634 
rule_id=1168,table_id=0,predicate=00000000000000000000001100010001,in_ports=81,out_ports=83,priority=59633 
rule_id=1169,table_id=0,predicate=00000000000000000000001110000100,in_ports=81,out_ports=83,priority=59632 
rule_id=1170,table_id=0,predicate=00000000000000000000001110000100,in_ports=81,out_ports=83,priority=59631 
rule_id=1171,table_id=0,predicate=00000000000000000000001110000100,in_ports=81,out_ports=83,priority=59630 
rule_id=1172,table_id=0,predicate=00000000000000000000001100001100,in_ports=81,out_ports=83,priority=59629 
rule_id=1173,table_id=0,predicate=00000000000000000000001100001100,in_ports=81,out_ports=83,priority=59628 
rule_id=1174,table_id=0,predicate=00000000000000000000001100001100,in_ports=81,out_ports=83,priority=59627 
rule_id=1175,table_id=0,predicate=00000000000000000000001100001100,in_ports=81,out_ports=83,priority=59626 
rule_id=1176,table_id=0,predicate=00000000000000000000001100001100,in_ports=81,out_ports=83,priority=59625 
rule_id=1177,table_id=0,predicate=00000000000000000000001101001000,in_ports=81,out_ports=83,priority=59624 
rule_id=1178,table_id=0,predicate=00000000000000000000001101001000,in_ports=81,out_ports=83,priority=59623 
rule_id=1179,table_id=0,predicate=00000000000000000000001101001000,in_ports=81,out_ports=83,priority=59622 
rule_id=1180,table_id=0,predicate=00000000000000000000001101001000,in_ports=81,out_ports=83,priority=59621 
rule_id=1181,table_id=0,predicate=00000000000000000000011000000001,in_ports=81,out_ports=83,priority=59620 
rule_id=1182,table_id=0,predicate=00000000000000000000011000000001,in_ports=81,out_ports=83,priority=59619 
rule_id=1183,table_id=0,predicate=00000000000000000000011000000001,in_ports=81,out_ports=83,priority=59618 
rule_id=1184,table_id=0,predicate=00000000000000000000011000000000,in_ports=81,out_ports=83,priority=59617 
rule_id=1185,table_id=0,predicate=00000000000000000000011000000000,in_ports=81,out_ports=83,priority=59616 
rule_id=1186,table_id=0,predicate=00000000000000000000011000000000,in_ports=81,out_ports=83,priority=59615 
rule_id=1187,table_id=0,predicate=00000000000000000000010111111111,in_ports=81,out_ports=83,priority=59614 
rule_id=1188,table_id=0,predicate=00000000000000000000010111111111,in_ports=81,out_ports=83,priority=59613 
rule_id=1189,table_id=0,predicate=00000000000000000000010111111111,in_ports=81,out_ports=83,priority=59612 
rule_id=1190,table_id=0,predicate=00000000000000000000010111111110,in_ports=81,out_ports=83,priority=59611 
rule_id=1191,table_id=0,predicate=00000000000000000000010111111110,in_ports=81,out_ports=83,priority=59610 
rule_id=1192,table_id=0,predicate=00000000000000000000010111111110,in_ports=81,out_ports=83,priority=59609 
rule_id=1193,table_id=0,predicate=00000000000000000000010111111101,in_ports=81,out_ports=83,priority=59608 
rule_id=1194,table_id=0,predicate=00000000000000000000010111111101,in_ports=81,out_ports=83,priority=59607 
rule_id=1195,table_id=0,predicate=00000000000000000000010111111101,in_ports=81,out_ports=83,priority=59606 
rule_id=1196,table_id=0,predicate=00000000000000000000000111111110,in_ports=81,out_ports=83,priority=59605 
rule_id=1197,table_id=0,predicate=00000000000000000000000111111110,in_ports=81,out_ports=83,priority=59604 
rule_id=1198,table_id=0,predicate=00000000000000000000000111111110,in_ports=81,out_ports=83,priority=59603 
rule_id=1199,table_id=0,predicate=00000000000000000000000111111110,in_ports=81,out_ports=83,priority=59602 
rule_id=1200,table_id=0,predicate=00000000000000000000001000000010,in_ports=81,out_ports=83,priority=59601 
rule_id=1201,table_id=0,predicate=00000000000000000000001000000010,in_ports=81,out_ports=83,priority=59600 
rule_id=1202,table_id=0,predicate=00000000000000000000001000000010,in_ports=81,out_ports=83,priority=59599 
rule_id=1203,table_id=0,predicate=00000000000000000000001000000010,in_ports=81,out_ports=83,priority=59598 
rule_id=1204,table_id=0,predicate=00000000000000000000001000000101,in_ports=81,out_ports=83,priority=59597 
rule_id=1205,table_id=0,predicate=00000000000000000000001000000101,in_ports=81,out_ports=83,priority=59596 
rule_id=1206,table_id=0,predicate=00000000000000000000001000000101,in_ports=81,out_ports=83,priority=59595 
rule_id=1207,table_id=0,predicate=00000000000000000000001000000101,in_ports=81,out_ports=83,priority=59594 
rule_id=1208,table_id=0,predicate=00000000000000000000001011000101,in_ports=81,out_ports=83,priority=59593 
rule_id=1209,table_id=0,predicate=00000000000000000000001011000101,in_ports=81,out_ports=83,priority=59592 
rule_id=1210,table_id=0,predicate=00000000000000000000001011000101,in_ports=81,out_ports=83,priority=59591 
rule_id=1211,table_id=0,predicate=00000000000000000000001011000101,in_ports=81,out_ports=83,priority=59590 
rule_id=1212,table_id=0,predicate=00000000000000000000001011000101,in_ports=81,out_ports=83,priority=59589 
rule_id=1213,table_id=0,predicate=00000000000000000000001011000101,in_ports=81,out_ports=83,priority=59588 
rule_id=1214,table_id=0,predicate=00000000000000000000001011000101,in_ports=81,out_ports=83,priority=59587 
rule_id=1215,table_id=0,predicate=00000000000000000000001011000101,in_ports=81,out_ports=83,priority=59586 
rule_id=1216,table_id=0,predicate=00000000000000000000001011000101,in_ports=81,out_ports=83,priority=59585 
rule_id=1217,table_id=0,predicate=00000000000000000000001011000101,in_ports=81,out_ports=83,priority=59584 
rule_id=1218,table_id=0,predicate=00000000000000000000001011000101,in_ports=81,out_ports=83,priority=59583 
rule_id=1219,table_id=0,predicate=00000000000000000000001011000101,in_ports=81,out_ports=83,priority=59582 
rule_id=1220,table_id=0,predicate=00000000000000000000001011000101,in_ports=81,out_ports=83,priority=59581 
rule_id=1221,table_id=0,predicate=00000000000000000000000111001011,in_ports=81,out_ports=83,priority=59580 
rule_id=1222,table_id=0,predicate=00000000000000000000000111001011,in_ports=81,out_ports=83,priority=59579 
rule_id=1223,table_id=0,predicate=00000000000000000000000111001011,in_ports=81,out_ports=83,priority=59578 
rule_id=1224,table_id=0,predicate=00000000000000000000000111001011,in_ports=81,out_ports=83,priority=59577 
rule_id=1225,table_id=0,predicate=00000000000000000000000111000010,in_ports=81,out_ports=83,priority=59576 
rule_id=1226,table_id=0,predicate=00000000000000000000000111000010,in_ports=81,out_ports=83,priority=59575 
rule_id=1227,table_id=0,predicate=00000000000000000000000111000010,in_ports=81,out_ports=83,priority=59574 
rule_id=1228,table_id=0,predicate=00000000000000000000000111000010,in_ports=81,out_ports=83,priority=59573 
rule_id=1229,table_id=0,predicate=00000000000000000000000111000100,in_ports=81,out_ports=83,priority=59572 
rule_id=1230,table_id=0,predicate=00000000000000000000000111000100,in_ports=81,out_ports=83,priority=59571 
rule_id=1231,table_id=0,predicate=00000000000000000000000111000100,in_ports=81,out_ports=83,priority=59570 
rule_id=1232,table_id=0,predicate=00000000000000000000000111000100,in_ports=81,out_ports=83,priority=59569 
rule_id=1233,table_id=0,predicate=00000000000000000000000111000100,in_ports=81,out_ports=83,priority=59568 
rule_id=1234,table_id=0,predicate=00000000000000000000000111000101,in_ports=81,out_ports=83,priority=59567 
rule_id=1235,table_id=0,predicate=00000000000000000000000111000101,in_ports=81,out_ports=83,priority=59566 
rule_id=1236,table_id=0,predicate=00000000000000000000000111000101,in_ports=81,out_ports=83,priority=59565 
rule_id=1237,table_id=0,predicate=00000000000000000000000111000101,in_ports=81,out_ports=83,priority=59564 
rule_id=1238,table_id=0,predicate=00000000000000000000000111000101,in_ports=81,out_ports=83,priority=59563 
rule_id=1239,table_id=0,predicate=00000000000000000000000111000111,in_ports=81,out_ports=83,priority=59562 
rule_id=1240,table_id=0,predicate=00000000000000000000000111000111,in_ports=81,out_ports=83,priority=59561 
rule_id=1241,table_id=0,predicate=00000000000000000000000111000111,in_ports=81,out_ports=83,priority=59560 
rule_id=1242,table_id=0,predicate=00000000000000000000000111000111,in_ports=81,out_ports=83,priority=59559 
rule_id=1243,table_id=0,predicate=00000000000000000000001011000100,in_ports=81,out_ports=83,priority=59558 
rule_id=1244,table_id=0,predicate=00000000000000000000001011000100,in_ports=81,out_ports=83,priority=59557 
rule_id=1245,table_id=0,predicate=00000000000000000000001011000100,in_ports=81,out_ports=83,priority=59556 
rule_id=1246,table_id=0,predicate=00000000000000000000001011000100,in_ports=81,out_ports=83,priority=59555 
rule_id=1247,table_id=0,predicate=00000000000000000000001011000100,in_ports=81,out_ports=83,priority=59554 
rule_id=1248,table_id=0,predicate=00000000000000000000001011000100,in_ports=81,out_ports=83,priority=59553 
rule_id=1249,table_id=0,predicate=00000000000000000000001011000100,in_ports=81,out_ports=83,priority=59552 
rule_id=1250,table_id=0,predicate=00000000000000000000001011000100,in_ports=81,out_ports=83,priority=59551 
rule_id=1251,table_id=0,predicate=00000000000000000000001011000100,in_ports=81,out_ports=83,priority=59550 
rule_id=1252,table_id=0,predicate=00000000000000000000001011000100,in_ports=81,out_ports=83,priority=59549 
rule_id=1253,table_id=0,predicate=00000000000000000000001011000100,in_ports=81,out_ports=83,priority=59548 
rule_id=1254,table_id=0,predicate=00000000000000000000001011000100,in_ports=81,out_ports=83,priority=59547 
rule_id=1255,table_id=0,predicate=00000000000000000000001011000100,in_ports=81,out_ports=83,priority=59546 
rule_id=1256,table_id=0,predicate=00000000000000000000000011111010,in_ports=81,out_ports=83,priority=59545 
rule_id=1257,table_id=0,predicate=00000000000000000000000011111010,in_ports=81,out_ports=83,priority=59544 
rule_id=1258,table_id=0,predicate=00000000000000000000000011111010,in_ports=81,out_ports=83,priority=59543 
rule_id=1259,table_id=0,predicate=00000000000000000000000011111010,in_ports=81,out_ports=83,priority=59542 
rule_id=1260,table_id=0,predicate=00000000000000000000001001010010,in_ports=81,out_ports=83,priority=59541 
rule_id=1261,table_id=0,predicate=00000000000000000000001001010010,in_ports=81,out_ports=83,priority=59540 
rule_id=1262,table_id=0,predicate=00000000000000000000001001010010,in_ports=81,out_ports=83,priority=59539 
rule_id=1263,table_id=0,predicate=00000000000000000000001001010010,in_ports=81,out_ports=83,priority=59538 
rule_id=1264,table_id=0,predicate=00000000000000000000010111011110,in_ports=81,out_ports=83,priority=59537 
rule_id=1265,table_id=0,predicate=00000000000000000000010111011110,in_ports=81,out_ports=83,priority=59536 
rule_id=1266,table_id=0,predicate=00000000000000000000010111011110,in_ports=81,out_ports=83,priority=59535 
rule_id=1267,table_id=0,predicate=00000000000000000000001101010010,in_ports=81,out_ports=83,priority=59534 
rule_id=1268,table_id=0,predicate=00000000000000000000001101010010,in_ports=81,out_ports=83,priority=59533 
rule_id=1269,table_id=0,predicate=00000000000000000000001101010010,in_ports=81,out_ports=83,priority=59532 
rule_id=1270,table_id=0,predicate=00000000000000000000001101010010,in_ports=81,out_ports=83,priority=59531 
rule_id=1271,table_id=0,predicate=00000000000000000000001111001010,in_ports=81,out_ports=83,priority=59530 
rule_id=1272,table_id=0,predicate=00000000000000000000001111001010,in_ports=81,out_ports=83,priority=59529 
rule_id=1273,table_id=0,predicate=00000000000000000000001111001010,in_ports=81,out_ports=83,priority=59528 
rule_id=1274,table_id=0,predicate=00000000000000000000001111001010,in_ports=81,out_ports=83,priority=59527 
rule_id=1275,table_id=0,predicate=00000000000000000000001111001010,in_ports=81,out_ports=83,priority=59526 
rule_id=1276,table_id=0,predicate=00000000000000000000001011011011,in_ports=81,out_ports=83,priority=59525 
rule_id=1277,table_id=0,predicate=00000000000000000000001011011011,in_ports=81,out_ports=83,priority=59524 
rule_id=1278,table_id=0,predicate=00000000000000000000001011011011,in_ports=81,out_ports=83,priority=59523 
rule_id=1279,table_id=0,predicate=00000000000000000000001011011011,in_ports=81,out_ports=83,priority=59522 
rule_id=1280,table_id=0,predicate=00000000000000000000001011011011,in_ports=81,out_ports=83,priority=59521 
rule_id=1281,table_id=0,predicate=00000000000000000000001011011010,in_ports=81,out_ports=83,priority=59520 
rule_id=1282,table_id=0,predicate=00000000000000000000001011011010,in_ports=81,out_ports=83,priority=59519 
rule_id=1283,table_id=0,predicate=00000000000000000000001011011010,in_ports=81,out_ports=83,priority=59518 
rule_id=1284,table_id=0,predicate=00000000000000000000001011011010,in_ports=81,out_ports=83,priority=59517 
rule_id=1285,table_id=0,predicate=00000000000000000000001011011010,in_ports=81,out_ports=83,priority=59516 
rule_id=1286,table_id=0,predicate=00000000000000000000001011011010,in_ports=81,out_ports=83,priority=59515 
rule_id=1287,table_id=0,predicate=00000000000000000000001011011100,in_ports=81,out_ports=83,priority=59514 
rule_id=1288,table_id=0,predicate=00000000000000000000001011011100,in_ports=81,out_ports=83,priority=59513 
rule_id=1289,table_id=0,predicate=00000000000000000000001011011100,in_ports=81,out_ports=83,priority=59512 
rule_id=1290,table_id=0,predicate=00000000000000000000001011011100,in_ports=81,out_ports=83,priority=59511 
rule_id=1291,table_id=0,predicate=00000000000000000000001011011100,in_ports=81,out_ports=83,priority=59510 
rule_id=1292,table_id=0,predicate=00000000000000000000010111100010,in_ports=81,out_ports=83,priority=59509 
rule_id=1293,table_id=0,predicate=00000000000000000000010111100010,in_ports=81,out_ports=83,priority=59508 
rule_id=1294,table_id=0,predicate=00000000000000000000010111100010,in_ports=81,out_ports=83,priority=59507 
rule_id=1295,table_id=0,predicate=00000000000000000000010111100011,in_ports=81,out_ports=83,priority=59506 
rule_id=1296,table_id=0,predicate=00000000000000000000010111100011,in_ports=81,out_ports=83,priority=59505 
rule_id=1297,table_id=0,predicate=00000000000000000000010111100011,in_ports=81,out_ports=83,priority=59504 
rule_id=1298,table_id=0,predicate=00000000000000000000010111100000,in_ports=81,out_ports=83,priority=59503 
rule_id=1299,table_id=0,predicate=00000000000000000000010111100000,in_ports=81,out_ports=83,priority=59502 
rule_id=1300,table_id=0,predicate=00000000000000000000010111100000,in_ports=81,out_ports=83,priority=59501 
rule_id=1301,table_id=0,predicate=00000000000000000000001011000001,in_ports=81,out_ports=83,priority=59500 
rule_id=1302,table_id=0,predicate=00000000000000000000001011000001,in_ports=81,out_ports=83,priority=59499 
rule_id=1303,table_id=0,predicate=00000000000000000000001011000001,in_ports=81,out_ports=83,priority=59498 
rule_id=1304,table_id=0,predicate=00000000000000000000001011000001,in_ports=81,out_ports=83,priority=59497 
rule_id=1305,table_id=0,predicate=00000000000000000000001011000001,in_ports=81,out_ports=83,priority=59496 
rule_id=1306,table_id=0,predicate=00000000000000000000001011000001,in_ports=81,out_ports=83,priority=59495 
rule_id=1307,table_id=0,predicate=00000000000000000000001011000001,in_ports=81,out_ports=83,priority=59494 
rule_id=1308,table_id=0,predicate=00000000000000000000001011000001,in_ports=81,out_ports=83,priority=59493 
rule_id=1309,table_id=0,predicate=00000000000000000000001011000001,in_ports=81,out_ports=83,priority=59492 
rule_id=1310,table_id=0,predicate=00000000000000000000001011000001,in_ports=81,out_ports=83,priority=59491 
rule_id=1311,table_id=0,predicate=00000000000000000000001011000001,in_ports=81,out_ports=83,priority=59490 
rule_id=1312,table_id=0,predicate=00000000000000000000001011000001,in_ports=81,out_ports=83,priority=59489 
rule_id=1313,table_id=0,predicate=00000000000000000000001011000001,in_ports=81,out_ports=83,priority=59488 
rule_id=1314,table_id=0,predicate=00000000000000000000010111100101,in_ports=81,out_ports=83,priority=59487 
rule_id=1315,table_id=0,predicate=00000000000000000000010111100101,in_ports=81,out_ports=83,priority=59486 
rule_id=1316,table_id=0,predicate=00000000000000000000010111100101,in_ports=81,out_ports=83,priority=59485 
rule_id=1317,table_id=0,predicate=00000000000000000000001111010100,in_ports=81,out_ports=83,priority=59484 
rule_id=1318,table_id=0,predicate=00000000000000000000001111010100,in_ports=81,out_ports=83,priority=59483 
rule_id=1319,table_id=0,predicate=00000000000000000000001111010100,in_ports=81,out_ports=83,priority=59482 
rule_id=1320,table_id=0,predicate=00000000000000000000001111010100,in_ports=81,out_ports=83,priority=59481 
rule_id=1321,table_id=0,predicate=00000000000000000000001111010100,in_ports=81,out_ports=83,priority=59480 
rule_id=1322,table_id=0,predicate=00000000000000000000000111110100,in_ports=81,out_ports=83,priority=59479 
rule_id=1323,table_id=0,predicate=00000000000000000000000111110100,in_ports=81,out_ports=83,priority=59478 
rule_id=1324,table_id=0,predicate=00000000000000000000000111110100,in_ports=81,out_ports=83,priority=59477 
rule_id=1325,table_id=0,predicate=00000000000000000000001000110000,in_ports=81,out_ports=83,priority=59476 
rule_id=1326,table_id=0,predicate=00000000000000000000001000110000,in_ports=81,out_ports=83,priority=59475 
rule_id=1327,table_id=0,predicate=00000000000000000000001000110000,in_ports=81,out_ports=83,priority=59474 
rule_id=1328,table_id=0,predicate=00000000000000000000001000110000,in_ports=81,out_ports=83,priority=59473 
rule_id=1329,table_id=0,predicate=00000000000000000000001000110010,in_ports=81,out_ports=83,priority=59472 
rule_id=1330,table_id=0,predicate=00000000000000000000001000110010,in_ports=81,out_ports=83,priority=59471 
rule_id=1331,table_id=0,predicate=00000000000000000000001000110010,in_ports=81,out_ports=83,priority=59470 
rule_id=1332,table_id=0,predicate=00000000000000000000001000110010,in_ports=81,out_ports=83,priority=59469 
rule_id=1333,table_id=0,predicate=00000000000000000000010111100001,in_ports=81,out_ports=83,priority=59468 
rule_id=1334,table_id=0,predicate=00000000000000000000010111100001,in_ports=81,out_ports=83,priority=59467 
rule_id=1335,table_id=0,predicate=00000000000000000000010111100001,in_ports=81,out_ports=83,priority=59466 
rule_id=1336,table_id=0,predicate=00000000000000000000000111001101,in_ports=81,out_ports=83,priority=59465 
rule_id=1337,table_id=0,predicate=00000000000000000000000111001101,in_ports=81,out_ports=83,priority=59464 
rule_id=1338,table_id=0,predicate=00000000000000000000000111001101,in_ports=81,out_ports=83,priority=59463 
rule_id=1339,table_id=0,predicate=00000000000000000000000111001101,in_ports=81,out_ports=83,priority=59462 
rule_id=1340,table_id=0,predicate=00000000000000000000001010111101,in_ports=81,out_ports=83,priority=59461 
rule_id=1341,table_id=0,predicate=00000000000000000000001010111101,in_ports=81,out_ports=83,priority=59460 
rule_id=1342,table_id=0,predicate=00000000000000000000001010111101,in_ports=81,out_ports=83,priority=59459 
rule_id=1343,table_id=0,predicate=00000000000000000000001010111101,in_ports=81,out_ports=83,priority=59458 
rule_id=1344,table_id=0,predicate=00000000000000000000001010111101,in_ports=81,out_ports=83,priority=59457 
rule_id=1345,table_id=0,predicate=00000000000000000000001010111101,in_ports=81,out_ports=83,priority=59456 
rule_id=1346,table_id=0,predicate=00000000000000000000001010111101,in_ports=81,out_ports=83,priority=59455 
rule_id=1347,table_id=0,predicate=00000000000000000000001010111101,in_ports=81,out_ports=83,priority=59454 
rule_id=1348,table_id=0,predicate=00000000000000000000001010111101,in_ports=81,out_ports=83,priority=59453 
rule_id=1349,table_id=0,predicate=00000000000000000000001010111101,in_ports=81,out_ports=83,priority=59452 
rule_id=1350,table_id=0,predicate=00000000000000000000001010111101,in_ports=81,out_ports=83,priority=59451 
rule_id=1351,table_id=0,predicate=00000000000000000000001010111101,in_ports=81,out_ports=83,priority=59450 
rule_id=1352,table_id=0,predicate=00000000000000000000001010111101,in_ports=81,out_ports=83,priority=59449 
rule_id=1353,table_id=0,predicate=00000000000000000000011101111001,in_ports=81,out_ports=83,priority=59448 
rule_id=1354,table_id=0,predicate=00000000000000000000011101111001,in_ports=81,out_ports=83,priority=59447 
rule_id=1355,table_id=0,predicate=00000000000000000000011101111001,in_ports=81,out_ports=83,priority=59446 
rule_id=1356,table_id=0,predicate=00000000000000000000011101111000,in_ports=81,out_ports=83,priority=59445 
rule_id=1357,table_id=0,predicate=00000000000000000000011101111000,in_ports=81,out_ports=83,priority=59444 
rule_id=1358,table_id=0,predicate=00000000000000000000011101111000,in_ports=81,out_ports=83,priority=59443 
rule_id=1359,table_id=0,predicate=00000000000000000000000011011111,in_ports=81,out_ports=83,priority=59442 
rule_id=1360,table_id=0,predicate=00000000000000000000000011011111,in_ports=81,out_ports=83,priority=59441 
rule_id=1361,table_id=0,predicate=00000000000000000000000011011111,in_ports=81,out_ports=83,priority=59440 
rule_id=1362,table_id=0,predicate=00000000000000000000000011011111,in_ports=81,out_ports=83,priority=59439 
rule_id=1363,table_id=0,predicate=00000000000000000000000011011100,in_ports=81,out_ports=83,priority=59438 
rule_id=1364,table_id=0,predicate=00000000000000000000000011011100,in_ports=81,out_ports=83,priority=59437 
rule_id=1365,table_id=0,predicate=00000000000000000000000011011100,in_ports=81,out_ports=83,priority=59436 
rule_id=1366,table_id=0,predicate=00000000000000000000000011011100,in_ports=81,out_ports=83,priority=59435 
rule_id=1367,table_id=0,predicate=00000000000000000000010000000001,in_ports=81,out_ports=83,priority=59434 
rule_id=1368,table_id=0,predicate=00000000000000000000010000000001,in_ports=81,out_ports=83,priority=59433 
rule_id=1369,table_id=0,predicate=00000000000000000000010000000001,in_ports=81,out_ports=83,priority=59432 
rule_id=1370,table_id=0,predicate=00000000000000000000000000001010,in_ports=81,out_ports=83,priority=59431 
rule_id=1371,table_id=0,predicate=00000000000000000000000000001010,in_ports=81,out_ports=83,priority=59430 
rule_id=1372,table_id=0,predicate=00000000000000000000000000001010,in_ports=81,out_ports=83,priority=59429 
rule_id=1373,table_id=0,predicate=00000000000000000000000000001010,in_ports=81,out_ports=83,priority=59428 
rule_id=1374,table_id=0,predicate=00000000000000000000001111000000,in_ports=81,out_ports=83,priority=59427 
rule_id=1375,table_id=0,predicate=00000000000000000000001111000000,in_ports=81,out_ports=83,priority=59426 
rule_id=1376,table_id=0,predicate=00000000000000000000001111000000,in_ports=81,out_ports=83,priority=59425 
rule_id=1377,table_id=0,predicate=00000000000000000000001111000000,in_ports=81,out_ports=83,priority=59424 
rule_id=1378,table_id=0,predicate=00000000000000000000001111000000,in_ports=81,out_ports=83,priority=59423 
rule_id=1379,table_id=0,predicate=00000000000000000000000000010001,in_ports=81,out_ports=83,priority=59422 
rule_id=1380,table_id=0,predicate=00000000000000000000000000010001,in_ports=81,out_ports=83,priority=59421 
rule_id=1381,table_id=0,predicate=00000000000000000000000000010001,in_ports=81,out_ports=83,priority=59420 
rule_id=1382,table_id=0,predicate=00000000000000000000000000010001,in_ports=81,out_ports=83,priority=59419 
rule_id=1383,table_id=0,predicate=00000000000000000000000000010001,in_ports=81,out_ports=83,priority=59418 
rule_id=1384,table_id=0,predicate=00000000000000000000000000010001,in_ports=81,out_ports=83,priority=59417 
rule_id=1385,table_id=0,predicate=00000000000000000000000000010001,in_ports=81,out_ports=83,priority=59416 
rule_id=1386,table_id=0,predicate=00000000000000000000000000010001,in_ports=81,out_ports=83,priority=59415 
rule_id=1387,table_id=0,predicate=00000000000000000000000000010001,in_ports=81,out_ports=83,priority=59414 
rule_id=1388,table_id=0,predicate=00000000000000000000000000010001,in_ports=81,out_ports=83,priority=59413 
rule_id=1389,table_id=0,predicate=00000000000000000000000000010001,in_ports=81,out_ports=83,priority=59412 
rule_id=1390,table_id=0,predicate=00000000000000000000000000010001,in_ports=81,out_ports=83,priority=59411 
rule_id=1391,table_id=0,predicate=00000000000000000000000000010001,in_ports=81,out_ports=83,priority=59410 
rule_id=1392,table_id=0,predicate=00000000000000000000000000010001,in_ports=81,out_ports=83,priority=59409 
rule_id=1393,table_id=0,predicate=00000000000000000000000000010000,in_ports=81,out_ports=83,priority=59408 
rule_id=1394,table_id=0,predicate=00000000000000000000000000010000,in_ports=81,out_ports=83,priority=59407 
rule_id=1395,table_id=0,predicate=00000000000000000000001101011100,in_ports=81,out_ports=83,priority=59406 
rule_id=1396,table_id=0,predicate=00000000000000000000001101011100,in_ports=81,out_ports=83,priority=59405 
rule_id=1397,table_id=0,predicate=00000000000000000000001101011100,in_ports=81,out_ports=83,priority=59404 
rule_id=1398,table_id=0,predicate=00000000000000000000001101011100,in_ports=81,out_ports=83,priority=59403 
rule_id=1399,table_id=0,predicate=00000000000000000000010010011100,in_ports=81,out_ports=83,priority=59402 
rule_id=1400,table_id=0,predicate=00000000000000000000010010011100,in_ports=81,out_ports=83,priority=59401 
rule_id=1401,table_id=0,predicate=00000000000000000000010010011100,in_ports=81,out_ports=83,priority=59400 
rule_id=1402,table_id=0,predicate=00000000000000000000010010011101,in_ports=81,out_ports=83,priority=59399 
rule_id=1403,table_id=0,predicate=00000000000000000000010010011101,in_ports=81,out_ports=83,priority=59398 
rule_id=1404,table_id=0,predicate=00000000000000000000010010011101,in_ports=81,out_ports=83,priority=59397 
rule_id=1405,table_id=0,predicate=00000000000000000000010010011101,in_ports=81,out_ports=83,priority=59396 
rule_id=1406,table_id=0,predicate=00000000000000000000001011010110,in_ports=81,out_ports=83,priority=59395 
rule_id=1407,table_id=0,predicate=00000000000000000000001011010110,in_ports=81,out_ports=83,priority=59394 
rule_id=1408,table_id=0,predicate=00000000000000000000001011010110,in_ports=81,out_ports=83,priority=59393 
rule_id=1409,table_id=0,predicate=00000000000000000000001011010110,in_ports=81,out_ports=83,priority=59392 
rule_id=1410,table_id=0,predicate=00000000000000000000001011010110,in_ports=81,out_ports=83,priority=59391 
rule_id=1411,table_id=0,predicate=00000000000000000000001011010111,in_ports=81,out_ports=83,priority=59390 
rule_id=1412,table_id=0,predicate=00000000000000000000001011010111,in_ports=81,out_ports=83,priority=59389 
rule_id=1413,table_id=0,predicate=00000000000000000000001011010111,in_ports=81,out_ports=83,priority=59388 
rule_id=1414,table_id=0,predicate=00000000000000000000001011010111,in_ports=81,out_ports=83,priority=59387 
rule_id=1415,table_id=0,predicate=00000000000000000000001011010111,in_ports=81,out_ports=83,priority=59386 
rule_id=1416,table_id=0,predicate=00000000000000000000001011010100,in_ports=81,out_ports=83,priority=59385 
rule_id=1417,table_id=0,predicate=00000000000000000000001011010100,in_ports=81,out_ports=83,priority=59384 
rule_id=1418,table_id=0,predicate=00000000000000000000001011010100,in_ports=81,out_ports=83,priority=59383 
rule_id=1419,table_id=0,predicate=00000000000000000000001011010100,in_ports=81,out_ports=83,priority=59382 
rule_id=1420,table_id=0,predicate=00000000000000000000001011010100,in_ports=81,out_ports=83,priority=59381 
rule_id=1421,table_id=0,predicate=00000000000000000000001011010101,in_ports=81,out_ports=83,priority=59380 
rule_id=1422,table_id=0,predicate=00000000000000000000001011010101,in_ports=81,out_ports=83,priority=59379 
rule_id=1423,table_id=0,predicate=00000000000000000000001011010101,in_ports=81,out_ports=83,priority=59378 
rule_id=1424,table_id=0,predicate=00000000000000000000001011010101,in_ports=81,out_ports=83,priority=59377 
rule_id=1425,table_id=0,predicate=00000000000000000000001011010101,in_ports=81,out_ports=83,priority=59376 
rule_id=1426,table_id=0,predicate=00000000000000000000001011010010,in_ports=81,out_ports=83,priority=59375 
rule_id=1427,table_id=0,predicate=00000000000000000000001011010010,in_ports=81,out_ports=83,priority=59374 
rule_id=1428,table_id=0,predicate=00000000000000000000001011010010,in_ports=81,out_ports=83,priority=59373 
rule_id=1429,table_id=0,predicate=00000000000000000000001011010010,in_ports=81,out_ports=83,priority=59372 
rule_id=1430,table_id=0,predicate=00000000000000000000001011010010,in_ports=81,out_ports=83,priority=59371 
rule_id=1431,table_id=0,predicate=00000000000000000000001011010011,in_ports=81,out_ports=83,priority=59370 
rule_id=1432,table_id=0,predicate=00000000000000000000001011010011,in_ports=81,out_ports=83,priority=59369 
rule_id=1433,table_id=0,predicate=00000000000000000000001011010011,in_ports=81,out_ports=83,priority=59368 
rule_id=1434,table_id=0,predicate=00000000000000000000001011010011,in_ports=81,out_ports=83,priority=59367 
rule_id=1435,table_id=0,predicate=00000000000000000000001011010011,in_ports=81,out_ports=83,priority=59366 
rule_id=1436,table_id=0,predicate=00000000000000000000001011010000,in_ports=81,out_ports=83,priority=59365 
rule_id=1437,table_id=0,predicate=00000000000000000000001011010000,in_ports=81,out_ports=83,priority=59364 
rule_id=1438,table_id=0,predicate=00000000000000000000001011010000,in_ports=81,out_ports=83,priority=59363 
rule_id=1439,table_id=0,predicate=00000000000000000000001011010000,in_ports=81,out_ports=83,priority=59362 
rule_id=1440,table_id=0,predicate=00000000000000000000001011010000,in_ports=81,out_ports=83,priority=59361 
rule_id=1441,table_id=0,predicate=00000000000000000000001011010001,in_ports=81,out_ports=83,priority=59360 
rule_id=1442,table_id=0,predicate=00000000000000000000001011010001,in_ports=81,out_ports=83,priority=59359 
rule_id=1443,table_id=0,predicate=00000000000000000000001011010001,in_ports=81,out_ports=83,priority=59358 
rule_id=1444,table_id=0,predicate=00000000000000000000001011010001,in_ports=81,out_ports=83,priority=59357 
rule_id=1445,table_id=0,predicate=00000000000000000000001011010001,in_ports=81,out_ports=83,priority=59356 
rule_id=1446,table_id=0,predicate=00000000000000000000010111101011,in_ports=81,out_ports=83,priority=59355 
rule_id=1447,table_id=0,predicate=00000000000000000000010111101011,in_ports=81,out_ports=83,priority=59354 
rule_id=1448,table_id=0,predicate=00000000000000000000010111101011,in_ports=81,out_ports=83,priority=59353 
rule_id=1449,table_id=0,predicate=00000000000000000000010111101010,in_ports=81,out_ports=83,priority=59352 
rule_id=1450,table_id=0,predicate=00000000000000000000010111101010,in_ports=81,out_ports=83,priority=59351 
rule_id=1451,table_id=0,predicate=00000000000000000000010111101010,in_ports=81,out_ports=83,priority=59350 
rule_id=1452,table_id=0,predicate=00000000000000000000010111101101,in_ports=81,out_ports=83,priority=59349 
rule_id=1453,table_id=0,predicate=00000000000000000000010111101101,in_ports=81,out_ports=83,priority=59348 
rule_id=1454,table_id=0,predicate=00000000000000000000010111101101,in_ports=81,out_ports=83,priority=59347 
rule_id=1455,table_id=0,predicate=00000000000000000000010111101100,in_ports=81,out_ports=83,priority=59346 
rule_id=1456,table_id=0,predicate=00000000000000000000010111101100,in_ports=81,out_ports=83,priority=59345 
rule_id=1457,table_id=0,predicate=00000000000000000000010111101100,in_ports=81,out_ports=83,priority=59344 
rule_id=1458,table_id=0,predicate=00000000000000000000010111100110,in_ports=81,out_ports=83,priority=59343 
rule_id=1459,table_id=0,predicate=00000000000000000000010111100110,in_ports=81,out_ports=83,priority=59342 
rule_id=1460,table_id=0,predicate=00000000000000000000010111100110,in_ports=81,out_ports=83,priority=59341 
rule_id=1461,table_id=0,predicate=00000000000000000000001011011000,in_ports=81,out_ports=83,priority=59340 
rule_id=1462,table_id=0,predicate=00000000000000000000001011011000,in_ports=81,out_ports=83,priority=59339 
rule_id=1463,table_id=0,predicate=00000000000000000000001011011000,in_ports=81,out_ports=83,priority=59338 
rule_id=1464,table_id=0,predicate=00000000000000000000001011011000,in_ports=81,out_ports=83,priority=59337 
rule_id=1465,table_id=0,predicate=00000000000000000000001011011000,in_ports=81,out_ports=83,priority=59336 
rule_id=1466,table_id=0,predicate=00000000000000000000001011011001,in_ports=81,out_ports=83,priority=59335 
rule_id=1467,table_id=0,predicate=00000000000000000000001011011001,in_ports=81,out_ports=83,priority=59334 
rule_id=1468,table_id=0,predicate=00000000000000000000001011011001,in_ports=81,out_ports=83,priority=59333 
rule_id=1469,table_id=0,predicate=00000000000000000000001011011001,in_ports=81,out_ports=83,priority=59332 
rule_id=1470,table_id=0,predicate=00000000000000000000001011011001,in_ports=81,out_ports=83,priority=59331 
rule_id=1471,table_id=0,predicate=00000000000000000000001101110001,in_ports=81,out_ports=83,priority=59330 
rule_id=1472,table_id=0,predicate=00000000000000000000001101110001,in_ports=81,out_ports=83,priority=59329 
rule_id=1473,table_id=0,predicate=00000000000000000000001101110001,in_ports=81,out_ports=83,priority=59328 
rule_id=1474,table_id=0,predicate=00000000000000000000001101110001,in_ports=81,out_ports=83,priority=59327 
rule_id=1475,table_id=0,predicate=00000000000000000000001101110000,in_ports=81,out_ports=83,priority=59326 
rule_id=1476,table_id=0,predicate=00000000000000000000001101110000,in_ports=81,out_ports=83,priority=59325 
rule_id=1477,table_id=0,predicate=00000000000000000000001101110000,in_ports=81,out_ports=83,priority=59324 
rule_id=1478,table_id=0,predicate=00000000000000000000001101110000,in_ports=81,out_ports=83,priority=59323 
rule_id=1479,table_id=0,predicate=00000000000000000000010111101111,in_ports=81,out_ports=83,priority=59322 
rule_id=1480,table_id=0,predicate=00000000000000000000010111101111,in_ports=81,out_ports=83,priority=59321 
rule_id=1481,table_id=0,predicate=00000000000000000000010111101111,in_ports=81,out_ports=83,priority=59320 
rule_id=1482,table_id=0,predicate=00000000000000000000001000100110,in_ports=81,out_ports=83,priority=59319 
rule_id=1483,table_id=0,predicate=00000000000000000000001000100110,in_ports=81,out_ports=83,priority=59318 
rule_id=1484,table_id=0,predicate=00000000000000000000001000100110,in_ports=81,out_ports=83,priority=59317 
rule_id=1485,table_id=0,predicate=00000000000000000000001000100110,in_ports=81,out_ports=83,priority=59316 
rule_id=1486,table_id=0,predicate=00000000000000000000001110110110,in_ports=81,out_ports=83,priority=59315 
rule_id=1487,table_id=0,predicate=00000000000000000000001110110110,in_ports=81,out_ports=83,priority=59314 
rule_id=1488,table_id=0,predicate=00000000000000000000001110110110,in_ports=81,out_ports=83,priority=59313 
rule_id=1489,table_id=0,predicate=00000000000000000000001110110110,in_ports=81,out_ports=83,priority=59312 
rule_id=1490,table_id=0,predicate=00000000000000000000001101100110,in_ports=81,out_ports=83,priority=59311 
rule_id=1491,table_id=0,predicate=00000000000000000000001101100110,in_ports=81,out_ports=83,priority=59310 
rule_id=1492,table_id=0,predicate=00000000000000000000001101100110,in_ports=81,out_ports=83,priority=59309 
rule_id=1493,table_id=0,predicate=00000000000000000000001101100110,in_ports=81,out_ports=83,priority=59308 
rule_id=1494,table_id=0,predicate=00000000000000000000011000000010,in_ports=81,out_ports=83,priority=59307 
rule_id=1495,table_id=0,predicate=00000000000000000000011000000010,in_ports=81,out_ports=83,priority=59306 
rule_id=1496,table_id=0,predicate=00000000000000000000011000000010,in_ports=81,out_ports=83,priority=59305 
rule_id=1497,table_id=0,predicate=00000000000000000000000101000000,in_ports=81,out_ports=83,priority=59304 
rule_id=1498,table_id=0,predicate=00000000000000000000000101000000,in_ports=81,out_ports=83,priority=59303 
rule_id=1499,table_id=0,predicate=00000000000000000000000101000000,in_ports=81,out_ports=83,priority=59302 
rule_id=1500,table_id=0,predicate=00000000000000000000000101000000,in_ports=81,out_ports=83,priority=59301 
rule_id=1501,table_id=0,predicate=00000000000000000000010001011010,in_ports=81,out_ports=83,priority=59300 
rule_id=1502,table_id=0,predicate=00000000000000000000010001011010,in_ports=81,out_ports=83,priority=59299 
rule_id=1503,table_id=0,predicate=00000000000000000000010001011010,in_ports=81,out_ports=83,priority=59298 
rule_id=1504,table_id=0,predicate=00000000000000000000000011001001,in_ports=81,out_ports=83,priority=59297 
rule_id=1505,table_id=0,predicate=00000000000000000000000011001001,in_ports=81,out_ports=83,priority=59296 
rule_id=1506,table_id=0,predicate=00000000000000000000000011001001,in_ports=81,out_ports=83,priority=59295 
rule_id=1507,table_id=0,predicate=00000000000000000000010010011000,in_ports=81,out_ports=83,priority=59294 
rule_id=1508,table_id=0,predicate=00000000000000000000010010011000,in_ports=81,out_ports=83,priority=59293 
rule_id=1509,table_id=0,predicate=00000000000000000000010010011000,in_ports=81,out_ports=83,priority=59292 
rule_id=1510,table_id=0,predicate=00000000000000000000010010010111,in_ports=81,out_ports=83,priority=59291 
rule_id=1511,table_id=0,predicate=00000000000000000000010010010111,in_ports=81,out_ports=83,priority=59290 
rule_id=1512,table_id=0,predicate=00000000000000000000010010010111,in_ports=81,out_ports=83,priority=59289 
rule_id=1513,table_id=0,predicate=00000000000000000000010010010110,in_ports=81,out_ports=83,priority=59288 
rule_id=1514,table_id=0,predicate=00000000000000000000010010010110,in_ports=81,out_ports=83,priority=59287 
rule_id=1515,table_id=0,predicate=00000000000000000000010010010110,in_ports=81,out_ports=83,priority=59286 
rule_id=1516,table_id=0,predicate=00000000000000000000010010010101,in_ports=81,out_ports=83,priority=59285 
rule_id=1517,table_id=0,predicate=00000000000000000000010010010101,in_ports=81,out_ports=83,priority=59284 
rule_id=1518,table_id=0,predicate=00000000000000000000010010010101,in_ports=81,out_ports=83,priority=59283 
rule_id=1519,table_id=0,predicate=00000000000000000000001100000010,in_ports=81,out_ports=83,priority=59282 
rule_id=1520,table_id=0,predicate=00000000000000000000001100000010,in_ports=81,out_ports=83,priority=59281 
rule_id=1521,table_id=0,predicate=00000000000000000000001100000010,in_ports=81,out_ports=83,priority=59280 
rule_id=1522,table_id=0,predicate=00000000000000000000001100000010,in_ports=81,out_ports=83,priority=59279 
rule_id=1523,table_id=0,predicate=00000000000000000000001100000010,in_ports=81,out_ports=83,priority=59278 
rule_id=1524,table_id=0,predicate=00000000000000000000000011001110,in_ports=81,out_ports=83,priority=59277 
rule_id=1525,table_id=0,predicate=00000000000000000000000011001110,in_ports=81,out_ports=83,priority=59276 
rule_id=1526,table_id=0,predicate=00000000000000000000000011001110,in_ports=81,out_ports=83,priority=59275 
rule_id=1527,table_id=0,predicate=00000000000000000000000011010001,in_ports=81,out_ports=83,priority=59274 
rule_id=1528,table_id=0,predicate=00000000000000000000000011010001,in_ports=81,out_ports=83,priority=59273 
rule_id=1529,table_id=0,predicate=00000000000000000000000011010000,in_ports=81,out_ports=83,priority=59272 
rule_id=1530,table_id=0,predicate=00000000000000000000000011010000,in_ports=81,out_ports=83,priority=59271 
rule_id=1531,table_id=0,predicate=00000000000000000000000011010000,in_ports=81,out_ports=83,priority=59270 
rule_id=1532,table_id=0,predicate=00000000000000000000001100111110,in_ports=81,out_ports=83,priority=59269 
rule_id=1533,table_id=0,predicate=00000000000000000000001100111110,in_ports=81,out_ports=83,priority=59268 
rule_id=1534,table_id=0,predicate=00000000000000000000001100111110,in_ports=81,out_ports=83,priority=59267 
rule_id=1535,table_id=0,predicate=00000000000000000000001100111110,in_ports=81,out_ports=83,priority=59266 
rule_id=1536,table_id=0,predicate=00000000000000000000010010011011,in_ports=81,out_ports=83,priority=59265 
rule_id=1537,table_id=0,predicate=00000000000000000000010010011011,in_ports=81,out_ports=83,priority=59264 
rule_id=1538,table_id=0,predicate=00000000000000000000010010011011,in_ports=81,out_ports=83,priority=59263 
rule_id=1539,table_id=0,predicate=00000000000000000000010010011010,in_ports=81,out_ports=83,priority=59262 
rule_id=1540,table_id=0,predicate=00000000000000000000010010011010,in_ports=81,out_ports=83,priority=59261 
rule_id=1541,table_id=0,predicate=00000000000000000000010010011010,in_ports=81,out_ports=83,priority=59260 
rule_id=1542,table_id=0,predicate=00000000000000000000010111011101,in_ports=81,out_ports=83,priority=59259 
rule_id=1543,table_id=0,predicate=00000000000000000000010111011101,in_ports=81,out_ports=83,priority=59258 
rule_id=1544,table_id=0,predicate=00000000000000000000010111011101,in_ports=81,out_ports=83,priority=59257 
rule_id=1545,table_id=0,predicate=00000000000000000000101010001110,in_ports=81,out_ports=83,priority=59256 
rule_id=1546,table_id=0,predicate=00000000000000000000101010001110,in_ports=81,out_ports=83,priority=59255 
rule_id=1547,table_id=0,predicate=00000000000000000000101010001110,in_ports=81,out_ports=83,priority=59254 
rule_id=1548,table_id=0,predicate=00000000000000000000101010001110,in_ports=81,out_ports=83,priority=59253 
rule_id=1549,table_id=0,predicate=00000000000000000000001110101100,in_ports=81,out_ports=83,priority=59252 
rule_id=1550,table_id=0,predicate=00000000000000000000001110101100,in_ports=81,out_ports=83,priority=59251 
rule_id=1551,table_id=0,predicate=00000000000000000000001110101100,in_ports=81,out_ports=83,priority=59250 
rule_id=1552,table_id=0,predicate=00000000000000000000001110101100,in_ports=81,out_ports=83,priority=59249
