table:0
rule_id=101,table_id=0,predicate=10101100000100000000000001110000,in_ports=12,out_ports=11,priority=10
rule_id=102,table_id=0,predicate=10101100000100000000000001110000,in_ports=13,out_ports=11,priority=10
rule_id=103,table_id=0,predicate=10101100000100000000000001110000,in_ports=14,out_ports=11,priority=10
rule_id=104,table_id=0,predicate=10101100000100000000000011010100,in_ports=11,out_ports=12,priority=10
rule_id=105,table_id=0,predicate=10101100000100000000000011010100,in_ports=13,out_ports=12,priority=10
rule_id=106,table_id=0,predicate=10101100000100000000000011010100,in_ports=14,out_ports=12,priority=10
rule_id=107,table_id=0,predicate=10101100000100000000000000110100,in_ports=11,out_ports=13,priority=10
rule_id=108,table_id=0,predicate=10101100000100000000000000110100,in_ports=12,out_ports=13,priority=10
rule_id=109,table_id=0,predicate=10101100000100000000000000110100,in_ports=14,out_ports=13,priority=10
rule_id=110,table_id=0,predicate=10101100000100000000000010010100,in_ports=11,out_ports=14,priority=10
rule_id=111,table_id=0,predicate=10101100000100000000000010010100,in_ports=12,out_ports=14,priority=10
rule_id=112,table_id=0,predicate=10101100000100000000000010010100,in_ports=13,out_ports=14,priority=10
rule_id=113,table_id=0,predicate=10101100000100000000000001101111,in_ports=12,out_ports=11,priority=10
rule_id=114,table_id=0,predicate=10101100000100000000000001101111,in_ports=13,out_ports=11,priority=10
rule_id=115,table_id=0,predicate=10101100000100000000000001101111,in_ports=14,out_ports=11,priority=10
rule_id=116,table_id=0,predicate=10101100000100000000000011------,in_ports=11,out_ports=12,priority=10
rule_id=117,table_id=0,predicate=10101100000100000000000011------,in_ports=13,out_ports=12,priority=10
rule_id=118,table_id=0,predicate=10101100000100000000000011------,in_ports=14,out_ports=12,priority=10
rule_id=119,table_id=0,predicate=1010110000010000000000000011----,in_ports=11,out_ports=13,priority=10
rule_id=120,table_id=0,predicate=1010110000010000000000000011----,in_ports=12,out_ports=13,priority=10
rule_id=121,table_id=0,predicate=1010110000010000000000000011----,in_ports=14,out_ports=13,priority=10
rule_id=122,table_id=0,predicate=10101100000100000000000010------,in_ports=11,out_ports=13,priority=10
rule_id=123,table_id=0,predicate=10101100000100000000000010------,in_ports=12,out_ports=13,priority=10
rule_id=124,table_id=0,predicate=10101100000100000000000010------,in_ports=14,out_ports=13,priority=10
rule_id=125,table_id=0,predicate=101011000001000000000001--------,in_ports=12,out_ports=11,priority=10
rule_id=126,table_id=0,predicate=101011000001000000000001--------,in_ports=13,out_ports=11,priority=10
rule_id=127,table_id=0,predicate=101011000001000000000001--------,in_ports=14,out_ports=11,priority=10
rule_id=128,table_id=0,predicate=101011000001000000000010--------,in_ports=11,out_ports=12,priority=10
rule_id=129,table_id=0,predicate=101011000001000000000010--------,in_ports=13,out_ports=12,priority=10
rule_id=130,table_id=0,predicate=101011000001000000000010--------,in_ports=14,out_ports=12,priority=10
rule_id=131,table_id=0,predicate=101011000001000000000011--------,in_ports=11,out_ports=13,priority=10
rule_id=132,table_id=0,predicate=101011000001000000000011--------,in_ports=12,out_ports=13,priority=10
rule_id=133,table_id=0,predicate=101011000001000000000011--------,in_ports=14,out_ports=13,priority=10
rule_id=134,table_id=0,predicate=101011000001000000000100--------,in_ports=11,out_ports=14,priority=10
rule_id=135,table_id=0,predicate=101011000001000000000100--------,in_ports=12,out_ports=14,priority=10
rule_id=136,table_id=0,predicate=101011000001000000000100--------,in_ports=13,out_ports=14,priority=10
rule_id=137,table_id=0,predicate=10101100000100000000000000000---,in_ports=12,out_ports=11,priority=10
rule_id=138,table_id=0,predicate=10101100000100000000000000000---,in_ports=13,out_ports=11,priority=10
rule_id=139,table_id=0,predicate=10101100000100000000000000000---,in_ports=14,out_ports=11,priority=10
rule_id=140,table_id=0,predicate=10101100000100000000000000010---,in_ports=12,out_ports=11,priority=10
rule_id=141,table_id=0,predicate=10101100000100000000000000010---,in_ports=13,out_ports=11,priority=10
rule_id=142,table_id=0,predicate=10101100000100000000000000010---,in_ports=14,out_ports=11,priority=10
rule_id=143,table_id=0,predicate=10101100000100000000000000011000,in_ports=12,out_ports=11,priority=10
rule_id=144,table_id=0,predicate=10101100000100000000000000011000,in_ports=13,out_ports=11,priority=10
rule_id=145,table_id=0,predicate=10101100000100000000000000011000,in_ports=14,out_ports=11,priority=10
rule_id=146,table_id=0,predicate=10101100000100000000000000011111,in_ports=11,out_ports=13,priority=10
rule_id=147,table_id=0,predicate=10101100000100000000000000011111,in_ports=12,out_ports=13,priority=10
rule_id=148,table_id=0,predicate=10101100000100000000000000011111,in_ports=14,out_ports=13,priority=10
rule_id=149,table_id=0,predicate=10101100000100000000000000100000,in_ports=11,out_ports=13,priority=10
rule_id=150,table_id=0,predicate=10101100000100000000000000100000,in_ports=12,out_ports=13,priority=10
rule_id=151,table_id=0,predicate=10101100000100000000000000100000,in_ports=14,out_ports=13,priority=10
rule_id=152,table_id=0,predicate=101011000001000000010101--------,in_ports=12,out_ports=11,priority=10
rule_id=153,table_id=0,predicate=101011000001000000010101--------,in_ports=13,out_ports=11,priority=10
rule_id=154,table_id=0,predicate=101011000001000000010101--------,in_ports=14,out_ports=11,priority=10
rule_id=155,table_id=0,predicate=101011000001000000000101--------,in_ports=11,out_ports=12,priority=10
rule_id=156,table_id=0,predicate=101011000001000000000101--------,in_ports=13,out_ports=12,priority=10
rule_id=157,table_id=0,predicate=101011000001000000000101--------,in_ports=14,out_ports=12,priority=10
