table:0
rule_id=201,table_id=0,predicate=10101100000100000000000001111001,in_ports=22,out_ports=21,priority=10
rule_id=202,table_id=0,predicate=10101100000100000000000001111001,in_ports=23,out_ports=21,priority=10
rule_id=203,table_id=0,predicate=10101100000100000000000001111001,in_ports=24,out_ports=21,priority=10
rule_id=204,table_id=0,predicate=10101100000100000000000001111010,in_ports=22,out_ports=21,priority=10
rule_id=205,table_id=0,predicate=10101100000100000000000001111010,in_ports=23,out_ports=21,priority=10
rule_id=206,table_id=0,predicate=10101100000100000000000001111010,in_ports=24,out_ports=21,priority=10
rule_id=207,table_id=0,predicate=10101100000100000000000011011101,in_ports=21,out_ports=22,priority=10
rule_id=208,table_id=0,predicate=10101100000100000000000011011101,in_ports=23,out_ports=22,priority=10
rule_id=209,table_id=0,predicate=10101100000100000000000011011101,in_ports=24,out_ports=22,priority=10
rule_id=210,table_id=0,predicate=10101100000100000000000000111101,in_ports=21,out_ports=23,priority=10
rule_id=211,table_id=0,predicate=10101100000100000000000000111101,in_ports=22,out_ports=23,priority=10
rule_id=212,table_id=0,predicate=10101100000100000000000000111101,in_ports=24,out_ports=23,priority=10
rule_id=213,table_id=0,predicate=10101100000100000000000010100001,in_ports=21,out_ports=24,priority=10
rule_id=214,table_id=0,predicate=10101100000100000000000010100001,in_ports=22,out_ports=24,priority=10
rule_id=215,table_id=0,predicate=10101100000100000000000010100001,in_ports=23,out_ports=24,priority=10
rule_id=216,table_id=0,predicate=10101100000100000000000001101111,in_ports=22,out_ports=21,priority=10
rule_id=217,table_id=0,predicate=10101100000100000000000001101111,in_ports=23,out_ports=21,priority=10
rule_id=218,table_id=0,predicate=10101100000100000000000001101111,in_ports=24,out_ports=21,priority=10
rule_id=219,table_id=0,predicate=10101100000100000000000010110000,in_ports=22,out_ports=21,priority=10
rule_id=220,table_id=0,predicate=10101100000100000000000010110000,in_ports=23,out_ports=21,priority=10
rule_id=221,table_id=0,predicate=10101100000100000000000010110000,in_ports=24,out_ports=21,priority=10
rule_id=222,table_id=0,predicate=10101100000100000000000011------,in_ports=21,out_ports=22,priority=10
rule_id=223,table_id=0,predicate=10101100000100000000000011------,in_ports=23,out_ports=22,priority=10
rule_id=224,table_id=0,predicate=10101100000100000000000011------,in_ports=24,out_ports=22,priority=10
rule_id=225,table_id=0,predicate=1010110000010000000000000011----,in_ports=21,out_ports=23,priority=10
rule_id=226,table_id=0,predicate=1010110000010000000000000011----,in_ports=22,out_ports=23,priority=10
rule_id=227,table_id=0,predicate=1010110000010000000000000011----,in_ports=24,out_ports=23,priority=10
rule_id=228,table_id=0,predicate=10101100000100000000000010------,in_ports=21,out_ports=24,priority=10
rule_id=229,table_id=0,predicate=10101100000100000000000010------,in_ports=22,out_ports=24,priority=10
rule_id=230,table_id=0,predicate=10101100000100000000000010------,in_ports=23,out_ports=24,priority=10
rule_id=231,table_id=0,predicate=101011000001000000000001--------,in_ports=22,out_ports=21,priority=10
rule_id=232,table_id=0,predicate=101011000001000000000001--------,in_ports=23,out_ports=21,priority=10
rule_id=233,table_id=0,predicate=101011000001000000000001--------,in_ports=24,out_ports=21,priority=10
rule_id=234,table_id=0,predicate=101011000001000000000010--------,in_ports=21,out_ports=22,priority=10
rule_id=235,table_id=0,predicate=101011000001000000000010--------,in_ports=23,out_ports=22,priority=10
rule_id=236,table_id=0,predicate=101011000001000000000010--------,in_ports=24,out_ports=22,priority=10
rule_id=237,table_id=0,predicate=101011000001000000000011--------,in_ports=21,out_ports=23,priority=10
rule_id=238,table_id=0,predicate=101011000001000000000011--------,in_ports=22,out_ports=23,priority=10
rule_id=239,table_id=0,predicate=101011000001000000000011--------,in_ports=24,out_ports=23,priority=10
rule_id=240,table_id=0,predicate=101011000001000000000100--------,in_ports=21,out_ports=24,priority=10
rule_id=241,table_id=0,predicate=101011000001000000000100--------,in_ports=22,out_ports=24,priority=10
rule_id=242,table_id=0,predicate=101011000001000000000100--------,in_ports=23,out_ports=24,priority=10
rule_id=243,table_id=0,predicate=10101100000100000000000000000---,in_ports=22,out_ports=21,priority=10
rule_id=244,table_id=0,predicate=10101100000100000000000000000---,in_ports=23,out_ports=21,priority=10
rule_id=245,table_id=0,predicate=10101100000100000000000000000---,in_ports=24,out_ports=21,priority=10
rule_id=246,table_id=0,predicate=10101100000100000000000000001---,in_ports=21,out_ports=23,priority=10
rule_id=247,table_id=0,predicate=10101100000100000000000000001---,in_ports=22,out_ports=23,priority=10
rule_id=248,table_id=0,predicate=10101100000100000000000000001---,in_ports=24,out_ports=23,priority=10
rule_id=249,table_id=0,predicate=10101100000100000000000000011111,in_ports=22,out_ports=23,priority=10
rule_id=250,table_id=0,predicate=10101100000100000000000000011111,in_ports=23,out_ports=23,priority=10
rule_id=251,table_id=0,predicate=10101100000100000000000000011111,in_ports=24,out_ports=23,priority=10
rule_id=252,table_id=0,predicate=101011000001000000000000001000--,in_ports=22,out_ports=23,priority=10
rule_id=253,table_id=0,predicate=101011000001000000000000001000--,in_ports=23,out_ports=23,priority=10
rule_id=254,table_id=0,predicate=101011000001000000000000001000--,in_ports=24,out_ports=23,priority=10
rule_id=255,table_id=0,predicate=101011000001000000010101--------,in_ports=22,out_ports=21,priority=10
rule_id=256,table_id=0,predicate=101011000001000000010101--------,in_ports=23,out_ports=21,priority=10
rule_id=257,table_id=0,predicate=101011000001000000010101--------,in_ports=24,out_ports=21,priority=10
rule_id=258,table_id=0,predicate=101011000001000000000101--------,in_ports=21,out_ports=22,priority=10
rule_id=259,table_id=0,predicate=101011000001000000000101--------,in_ports=23,out_ports=22,priority=10
rule_id=260,table_id=0,predicate=101011000001000000000101--------,in_ports=24,out_ports=22,priority=10
