table:0
rule_id=1101,table_id=0,predicate=101011000001000000000001--------,in_ports=111,out_ports=113,priority=10
rule_id=1102,table_id=0,predicate=101011000001000000000001--------,in_ports=111,out_ports=114,priority=10
rule_id=1103,table_id=0,predicate=1010110000010000----------------,in_ports=111,out_ports=112,priority=15
rule_id=1104,table_id=0,predicate=101011000001000000000001--------,in_ports=112,out_ports=113,priority=10
rule_id=1105,table_id=0,predicate=101011000001000000000001--------,in_ports=112,out_ports=114,priority=10
rule_id=1106,table_id=0,predicate=1010110000010000----------------,in_ports=112,out_ports=111,priority=15
rule_id=1107,table_id=0,predicate=1010110000010000----------------,in_ports=113,out_ports=111,priority=15
rule_id=1108,table_id=0,predicate=1010110000010000----------------,in_ports=113,out_ports=112,priority=15
rule_id=1109,table_id=0,predicate=101011000001000000000001--------,in_ports=113,out_ports=114,priority=10
rule_id=1110,table_id=0,predicate=1010110000010000----------------,in_ports=114,out_ports=111,priority=15
rule_id=1111,table_id=0,predicate=1010110000010000----------------,in_ports=114,out_ports=112,priority=15
rule_id=1112,table_id=0,predicate=101011000001000000000001--------,in_ports=114,out_ports=113,priority=10
rule_id=1113,table_id=0,predicate=101011000001000000010100--------,in_ports=111,out_ports=111,priority=10
rule_id=1114,table_id=0,predicate=101011000001000000010100--------,in_ports=112,out_ports=111,priority=10
rule_id=1115,table_id=0,predicate=101011000001000000010100--------,in_ports=113,out_ports=111,priority=10
rule_id=1116,table_id=0,predicate=101011000001000000010100--------,in_ports=114,out_ports=111,priority=10

