table:0
rule_id=101,table_id=0,predicate=101011000001000000000010--------,in_ports=11,out_ports=12,priority=10
rule_id=102,table_id=0,predicate=101011000001000000000011--------,in_ports=11,out_ports=13,priority=10
rule_id=103,table_id=0,predicate=101011000001000000000100--------,in_ports=11,out_ports=14,priority=10
rule_id=104,table_id=0,predicate=101011000001000000000001--------,in_ports=12,out_ports=11,priority=10
rule_id=105,table_id=0,predicate=101011000001000000000011--------,in_ports=12,out_ports=13,priority=10
rule_id=106,table_id=0,predicate=101011000001000000000100--------,in_ports=12,out_ports=14,priority=10
rule_id=107,table_id=0,predicate=101011000001000000000001--------,in_ports=13,out_ports=11,priority=10
rule_id=108,table_id=0,predicate=101011000001000000000010--------,in_ports=13,out_ports=12,priority=10
rule_id=109,table_id=0,predicate=101011000001000000000100--------,in_ports=13,out_ports=14,priority=10
rule_id=110,table_id=0,predicate=101011000001000000000001--------,in_ports=14,out_ports=11,priority=10
rule_id=111,table_id=0,predicate=101011000001000000000010--------,in_ports=14,out_ports=12,priority=10
rule_id=112,table_id=0,predicate=101011000001000000000011--------,in_ports=14,out_ports=13,priority=10
rule_id=113,table_id=0,predicate=101011000001000000010100--------,in_ports=11,out_ports=12,priority=10
rule_id=114,table_id=0,predicate=101011000001000000010100--------,in_ports=12,out_ports=11,priority=10
rule_id=115,table_id=0,predicate=101011000001000000010100--------,in_ports=13,out_ports=14,priority=10
rule_id=116,table_id=0,predicate=101011000001000000010100--------,in_ports=14,out_ports=13,priority=10

